00:00:00.054091 VirtualBox DHCP Server 6.1.12 r139181 win.amd64 (Jul 10 2020 22:01:03) release log
00:00:00.054094 Log opened 2022-10-10T11:08:32.603017700Z
00:00:00.054095 Build Type: release
00:00:00.054098 OS Product: Windows 10
00:00:00.054099 OS Release: 10.0.22000
00:00:00.054099 OS Service Pack: 
00:00:00.677573 DMI Product Name: Inspiron 5515
00:00:00.696199 DMI Product Version: 1.11.1
00:00:00.696208 Firmware type: UEFI
00:00:00.696819 Secure Boot: VERR_PRIVILEGE_NOT_HELD
00:00:00.696880 Host RAM: 15720MB (15.3GB) total, 6529MB (6.3GB) available
00:00:00.696884 Executable: C:\Program Files\Oracle\VirtualBox\VBoxNetDHCP.exe
00:00:00.696885 Process ID: 26956
00:00:00.696885 Package type: WINDOWS_64BITS_GENERIC
00:00:00.697096 --config:  HostInterfaceNetworking-VirtualBox Host-Only Ethernet Adapter
00:00:00.697112 --comment: HostInterfaceNetworking-VirtualBox Host-Only Ethernet Adapter
00:00:00.857321 IP address:   192.168.56.100/24
00:00:00.857351 Address pool: 192.168.56.101 - 192.168.56.254
00:00:00.857601 MAC address is not specified: will use generated MAC 08:00:27:b2:28:86
00:00:00.857660 Db::i_enterFixedAddressAssignment: 08:00:27:b2:28:86: 192.168.56.100
00:00:00.857715 loading leases from C:\Users\bapti\.VirtualBox\HostInterfaceNetworking-VirtualBox Host-Only Ethernet Adapter-Dhcpd.leases
00:00:00.864819 > LOAD: EXPIRED lease 192.168.56.101 to [ff:27:19:37:a9:00:01:00:01:2a:bb:43:ce:08:00:27:19:37:a9] (08:00:27:19:37:a9), expired, valid from 2022-09-19T16:52:09Z for 600s until 2022-09-19T17:02:09Z
