00:00:00.055932 VirtualBox DHCP Server 6.1.12 r139181 win.amd64 (Jul 10 2020 22:01:03) release log
00:00:00.055935 Log opened 2022-10-10T14:36:38.292307700Z
00:00:00.055936 Build Type: release
00:00:00.055940 OS Product: Windows 10
00:00:00.055941 OS Release: 10.0.22000
00:00:00.055942 OS Service Pack: 
00:00:00.675257 DMI Product Name: Inspiron 5515
00:00:00.694951 DMI Product Version: 1.11.1
00:00:00.694961 Firmware type: UEFI
00:00:00.695599 Secure Boot: VERR_PRIVILEGE_NOT_HELD
00:00:00.695619 Host RAM: 15720MB (15.3GB) total, 5807MB (5.6GB) available
00:00:00.695623 Executable: C:\Program Files\Oracle\VirtualBox\VBoxNetDHCP.exe
00:00:00.695624 Process ID: 14700
00:00:00.695624 Package type: WINDOWS_64BITS_GENERIC
00:00:00.695843 --config:  HostInterfaceNetworking-VirtualBox Host-Only Ethernet Adapter
00:00:00.695857 --comment: HostInterfaceNetworking-VirtualBox Host-Only Ethernet Adapter
00:00:00.841006 IP address:   192.168.56.100/24
00:00:00.841033 Address pool: 192.168.56.101 - 192.168.56.254
00:00:00.841076 MAC address is not specified: will use generated MAC 08:00:27:96:96:ea
00:00:00.841087 Db::i_enterFixedAddressAssignment: 08:00:27:96:96:ea: 192.168.56.100
00:00:00.841099 loading leases from C:\Users\bapti\.VirtualBox\HostInterfaceNetworking-VirtualBox Host-Only Ethernet Adapter-Dhcpd.leases
00:00:00.841385 > LOAD: EXPIRED lease 192.168.56.101 to [ff:27:19:37:a9:00:01:00:01:2a:bb:43:ce:08:00:27:19:37:a9] (08:00:27:19:37:a9), expired, valid from 2022-09-19T16:52:09Z for 600s until 2022-09-19T17:02:09Z
