00:00:00.066061 VirtualBox DHCP Server 6.1.12 r139181 win.amd64 (Jul 10 2020 22:01:03) release log
00:00:00.066063 Log opened 2022-10-03T12:08:23.436429300Z
00:00:00.066064 Build Type: release
00:00:00.066067 OS Product: Windows 10
00:00:00.066068 OS Release: 10.0.22000
00:00:00.066069 OS Service Pack: 
00:00:00.685970 DMI Product Name: Inspiron 5515
00:00:00.703962 DMI Product Version: 1.11.1
00:00:00.703970 Firmware type: UEFI
00:00:00.704607 Secure Boot: VERR_PRIVILEGE_NOT_HELD
00:00:00.704628 Host RAM: 15720MB (15.3GB) total, 7424MB (7.2GB) available
00:00:00.704632 Executable: C:\Program Files\Oracle\VirtualBox\VBoxNetDHCP.exe
00:00:00.704633 Process ID: 4060
00:00:00.704634 Package type: WINDOWS_64BITS_GENERIC
00:00:00.704826 --config:  HostInterfaceNetworking-VirtualBox Host-Only Ethernet Adapter
00:00:00.704840 --comment: HostInterfaceNetworking-VirtualBox Host-Only Ethernet Adapter
00:00:00.853777 IP address:   192.168.56.100/24
00:00:00.853803 Address pool: 192.168.56.101 - 192.168.56.254
00:00:00.853939 MAC address is not specified: will use generated MAC 08:00:27:2b:b8:60
00:00:00.853962 Db::i_enterFixedAddressAssignment: 08:00:27:2b:b8:60: 192.168.56.100
00:00:00.853987 loading leases from C:\Users\bapti\.VirtualBox\HostInterfaceNetworking-VirtualBox Host-Only Ethernet Adapter-Dhcpd.leases
00:00:00.863421 > LOAD: EXPIRED lease 192.168.56.101 to [ff:27:19:37:a9:00:01:00:01:2a:bb:43:ce:08:00:27:19:37:a9] (08:00:27:19:37:a9), expired, valid from 2022-09-19T16:52:09Z for 600s until 2022-09-19T17:02:09Z
