00:00:00.053079 VirtualBox DHCP Server 6.1.12 r139181 win.amd64 (Jul 10 2020 22:01:03) release log
00:00:00.053082 Log opened 2022-09-26T12:06:00.875844600Z
00:00:00.053083 Build Type: release
00:00:00.053086 OS Product: Windows 10
00:00:00.053087 OS Release: 10.0.22000
00:00:00.053088 OS Service Pack: 
00:00:00.596859 DMI Product Name: Inspiron 5515
00:00:00.615476 DMI Product Version: 1.11.1
00:00:00.615484 Firmware type: UEFI
00:00:00.616321 Secure Boot: VERR_PRIVILEGE_NOT_HELD
00:00:00.616355 Host RAM: 15720MB (15.3GB) total, 6942MB (6.7GB) available
00:00:00.616361 Executable: C:\Program Files\Oracle\VirtualBox\VBoxNetDHCP.exe
00:00:00.616362 Process ID: 20284
00:00:00.616363 Package type: WINDOWS_64BITS_GENERIC
00:00:00.616703 --config:  HostInterfaceNetworking-VirtualBox Host-Only Ethernet Adapter
00:00:00.616725 --comment: HostInterfaceNetworking-VirtualBox Host-Only Ethernet Adapter
00:00:00.731287 IP address:   192.168.56.100/24
00:00:00.731310 Address pool: 192.168.56.101 - 192.168.56.254
00:00:00.731419 MAC address is not specified: will use generated MAC 08:00:27:71:ea:4e
00:00:00.731438 Db::i_enterFixedAddressAssignment: 08:00:27:71:ea:4e: 192.168.56.100
00:00:00.731456 loading leases from C:\Users\bapti\.VirtualBox\HostInterfaceNetworking-VirtualBox Host-Only Ethernet Adapter-Dhcpd.leases
00:00:00.738946 > LOAD: EXPIRED lease 192.168.56.101 to [ff:27:19:37:a9:00:01:00:01:2a:bb:43:ce:08:00:27:19:37:a9] (08:00:27:19:37:a9), expired, valid from 2022-09-19T16:52:09Z for 600s until 2022-09-19T17:02:09Z
