00:00:00.682457 VirtualBox GUI VM Selector Window 6.1.12 r139181 win.amd64 (Jul 10 2020 22:02:01) release log
00:00:00.682460 Log opened 2022-10-10T14:32:24.253097000Z
00:00:00.682461 Build Type: release
00:00:00.682465 OS Product: Windows 10
00:00:00.682467 OS Release: 10.0.22000
00:00:00.682467 OS Service Pack: 
00:00:00.711801 DMI Product Name: Inspiron 5515
00:00:00.717628 DMI Product Version: 1.11.1
00:00:00.717657 Firmware type: UEFI
00:00:00.718087 Secure Boot: VERR_PRIVILEGE_NOT_HELD
00:00:00.718112 Host RAM: 15720MB (15.3GB) total, 6633MB (6.4GB) available
00:00:00.718117 Executable: C:\Program Files\Oracle\VirtualBox\VirtualBox.exe
00:00:00.718118 Process ID: 3596
00:00:00.718118 Package type: WINDOWS_64BITS_GENERIC
00:00:00.718439 Qt version: 5.6.2
00:00:00.759974 GUI: UIMediumEnumerator: Medium-enumeration started...
00:00:01.446801 GUI: UIMediumEnumerator: Medium-enumeration finished!
