04:00:58.022371 Log continuation - Log started 2022-09-26T12:04:19.655977900Z
04:10:12.214284 GUI: UIMediumEnumerator: Medium-enumeration finished!
04:11:04.810373 GUI: UIMediumEnumerator: Medium with key={{417a4503-a8ef-41f4-9b72-c51c368c707d}} created
04:11:04.834261 GUI: UIMediumEnumerator: Medium-enumeration finished!
04:11:21.736248 GUI: UIMediumEnumerator: Medium-enumeration finished!
04:11:21.741743 GUI: UIMediumEnumerator: Medium-enumeration finished!
