00:00:00.863802 VirtualBox GUI VM Selector Window 7.0.0 r153978 win.amd64 (Oct  6 2022 18:03:10) release log
00:00:00.863804 Log opened 2022-10-17T12:34:11.406144500Z
00:00:00.863805 Build Type: release
00:00:00.863808 OS Product: Windows 11
00:00:00.863809 OS Release: 10.0.22000
00:00:00.863809 OS Service Pack: 
00:00:00.880880 DMI Product Name: Inspiron 5515
00:00:00.886770 DMI Product Version: 1.11.1
00:00:00.886799 Firmware type: UEFI
00:00:00.887140 Secure Boot: Enabled
00:00:00.887152 Host RAM: 15720MB (15.3GB) total, 9401MB (9.1GB) available
00:00:00.887156 Executable: C:\Program Files\Oracle\VirtualBox\VirtualBox.exe
00:00:00.887157 Process ID: 14416
00:00:00.887157 Package type: WINDOWS_64BITS_GENERIC
00:00:00.887334 Qt version: 5.15.2
00:00:00.888536 GUI: UIMediumEnumerator: Initial medium-enumeration finished!
00:00:00.926781 GUI: UIMediumEnumerator: Medium-enumeration started...
00:00:02.412924 GUI: UIMediumEnumerator: Medium-enumeration finished!
00:01:44.673151 GUI: UIMediumEnumerator: Medium-enumeration started...
00:01:44.679040 GUI: UIMediumEnumerator: Medium-enumeration finished!
00:02:36.370703 GUI: UIMediumEnumerator: Medium-enumeration finished!
00:02:42.825567 GUI: UIMediumEnumerator: Medium-enumeration finished!
07:05:48.438241 GUI: UIMediumEnumerator: Medium-enumeration finished!
07:05:48.438383 Log rotated - Log started 2022-10-17T12:34:11.406144500Z
