00:00:00.970864 VirtualBox GUI VM Selector Window 6.1.12 r139181 win.amd64 (Jul 10 2020 22:02:01) release log
00:00:00.970867 Log opened 2022-10-03T12:08:08.251385500Z
00:00:00.970868 Build Type: release
00:00:00.970871 OS Product: Windows 10
00:00:00.970872 OS Release: 10.0.22000
00:00:00.970873 OS Service Pack: 
00:00:00.998872 DMI Product Name: Inspiron 5515
00:00:01.005780 DMI Product Version: 1.11.1
00:00:01.005811 Firmware type: UEFI
00:00:01.006309 Secure Boot: VERR_PRIVILEGE_NOT_HELD
00:00:01.006333 Host RAM: 15720MB (15.3GB) total, 7756MB (7.5GB) available
00:00:01.006338 Executable: C:\Program Files\Oracle\VirtualBox\VirtualBox.exe
00:00:01.006339 Process ID: 26792
00:00:01.006339 Package type: WINDOWS_64BITS_GENERIC
00:00:01.006652 Qt version: 5.6.2
00:00:01.047945 GUI: UIMediumEnumerator: Medium-enumeration started...
00:00:01.803341 GUI: UIMediumEnumerator: Medium-enumeration finished!
01:57:23.490818 GUI: UIMediumEnumerator: Medium-enumeration finished!
01:57:23.491103 Log rotated - Log started 2022-10-03T12:08:08.251385500Z
