01:27:31.655454 Log continuation - Log started 2022-10-10T11:08:18.087158600Z
02:41:00.740988 GUI: UIMediumEnumerator: Medium-enumeration finished!
02:41:00.741124 Log rotated - Log started 2022-10-10T11:08:18.087158600Z
