00:00:00.883993 VirtualBox GUI VM Selector Window 6.1.12 r139181 win.amd64 (Jul 10 2020 22:02:01) release log
00:00:00.883995 Log opened 2022-10-10T11:08:18.087158600Z
00:00:00.883996 Build Type: release
00:00:00.883999 OS Product: Windows 10
00:00:00.884000 OS Release: 10.0.22000
00:00:00.884001 OS Service Pack: 
00:00:00.913693 DMI Product Name: Inspiron 5515
00:00:00.919985 DMI Product Version: 1.11.1
00:00:00.920002 Firmware type: UEFI
00:00:00.920392 Secure Boot: VERR_PRIVILEGE_NOT_HELD
00:00:00.920411 Host RAM: 15720MB (15.3GB) total, 6794MB (6.6GB) available
00:00:00.920415 Executable: C:\Program Files\Oracle\VirtualBox\VirtualBox.exe
00:00:00.920416 Process ID: 30968
00:00:00.920417 Package type: WINDOWS_64BITS_GENERIC
00:00:00.920639 Qt version: 5.6.2
00:00:00.959656 GUI: UIMediumEnumerator: Medium-enumeration started...
00:00:01.827262 GUI: UIMediumEnumerator: Medium-enumeration finished!
01:27:31.638564 GUI: UIMediumEnumerator: Medium-enumeration finished!
01:27:31.638990 Log rotated - Log started 2022-10-10T11:08:18.087158600Z
