00:00:01.025576 VirtualBox GUI VM Selector Window 6.1.12 r139181 win.amd64 (Jul 10 2020 22:02:01) release log
00:00:01.025579 Log opened 2022-10-17T12:23:31.246006600Z
00:00:01.025579 Build Type: release
00:00:01.025583 OS Product: Windows 10
00:00:01.025584 OS Release: 10.0.22000
00:00:01.025585 OS Service Pack: 
00:00:01.050571 DMI Product Name: Inspiron 5515
00:00:01.056699 DMI Product Version: 1.11.1
00:00:01.056730 Firmware type: UEFI
00:00:01.057158 Secure Boot: VERR_PRIVILEGE_NOT_HELD
00:00:01.057182 Host RAM: 15720MB (15.3GB) total, 7369MB (7.1GB) available
00:00:01.057187 Executable: C:\Program Files\Oracle\VirtualBox\VirtualBox.exe
00:00:01.057188 Process ID: 28560
00:00:01.057189 Package type: WINDOWS_64BITS_GENERIC
00:00:01.057499 Qt version: 5.6.2
00:00:01.100112 GUI: UIMediumEnumerator: Medium-enumeration started...
00:00:01.832528 GUI: UIMediumEnumerator: Medium-enumeration finished!
