440:21:43.197215 dns-monitor Log continuation - Log started 2022-08-25T02:00:37.806831100Z
440:21:43.197346 dns-monitor HostDnsMonitor: old information
440:21:43.197368 dns-monitor   server 1: 192.168.1.254
440:21:43.197382 dns-monitor   no domain set
440:21:43.197396 dns-monitor   no search string entries
440:21:43.197409 dns-monitor HostDnsMonitor: new information
440:21:43.197422 dns-monitor   no server entries
440:21:43.197434 dns-monitor   no domain set
440:21:43.197447 dns-monitor   no search string entries
440:21:47.508290 USBPROXY usbLibGetDevices: Starting USB device enumeration
440:21:47.508809 USBPROXY Getting USB descriptor (id 0) failed (dwErr=31) on hub USB#ROOT_HUB30#5&f6577f2&0&0#{f18a0e88-c30c-11d0-8815-00a0c906bed8} port 1
440:21:47.509841 USBPROXY Getting USB descriptor (id 0) failed (dwErr=31) on hub USB#ROOT_HUB30#5&f6577f2&0&0#{f18a0e88-c30c-11d0-8815-00a0c906bed8} port 3
440:21:47.517804 USBPROXY usbLibGetDevices: Found 3 USB devices, 0 captured
440:21:48.417989 USBPROXY usbLibGetDevices: Starting USB device enumeration
440:21:48.418398 USBPROXY Getting USB descriptor (id 0) failed (dwErr=31) on hub USB#ROOT_HUB30#5&f6577f2&0&0#{f18a0e88-c30c-11d0-8815-00a0c906bed8} port 1
440:21:48.420249 USBPROXY Getting USB descriptor (id 0) failed (dwErr=31) on hub USB#ROOT_HUB30#5&f6577f2&0&0#{f18a0e88-c30c-11d0-8815-00a0c906bed8} port 3
440:21:48.429559 USBPROXY usbLibGetDevices: Found 3 USB devices, 0 captured
440:21:50.282985 dns-monitor HostDnsMonitor: updating information
440:21:50.283046 dns-monitor HostDnsMonitor: old information
440:21:50.283053 dns-monitor   no server entries
440:21:50.283059 dns-monitor   no domain set
440:21:50.283064 dns-monitor   no search string entries
440:21:50.283070 dns-monitor HostDnsMonitor: new information
440:21:50.283076 dns-monitor   server 1: 192.168.2.246
440:21:50.283154 dns-monitor   server 2: 192.168.2.249
440:21:50.283160 dns-monitor   domain: eff-etudiant.fr
440:21:50.283166 dns-monitor   no search string entries
440:22:39.110568 USBPROXY usbLibGetDevices: Starting USB device enumeration
440:22:39.111194 USBPROXY Getting USB descriptor (id 0) failed (dwErr=31) on hub USB#ROOT_HUB30#5&f6577f2&0&0#{f18a0e88-c30c-11d0-8815-00a0c906bed8} port 1
440:22:39.111363 USBPROXY Getting USB descriptor (id 0) failed (dwErr=31) on hub USB#ROOT_HUB30#5&f6577f2&0&0#{f18a0e88-c30c-11d0-8815-00a0c906bed8} port 3
440:22:39.111466 USBPROXY Getting USB descriptor (id 0) failed (dwErr=31) on hub USB#ROOT_HUB30#5&f6577f2&0&0#{f18a0e88-c30c-11d0-8815-00a0c906bed8} port 4
440:22:39.111727 USBPROXY usbLibGetDevices: Found 3 USB devices, 0 captured
440:22:39.111794 USBPROXY USB: Unknown USB device detected (idVendor: 0x27c6, idProduct: 0x639c)
440:22:49.211876 USBPROXY usbLibGetDevices: Starting USB device enumeration
440:22:49.212347 USBPROXY Getting USB descriptor (id 0) failed (dwErr=31) on hub USB#ROOT_HUB30#5&f6577f2&0&0#{f18a0e88-c30c-11d0-8815-00a0c906bed8} port 1
440:22:49.212454 USBPROXY Getting USB descriptor (id 0) failed (dwErr=31) on hub USB#ROOT_HUB30#5&f6577f2&0&0#{f18a0e88-c30c-11d0-8815-00a0c906bed8} port 3
440:22:49.212515 USBPROXY Getting USB descriptor (id 0) failed (dwErr=31) on hub USB#ROOT_HUB30#5&f6577f2&0&0#{f18a0e88-c30c-11d0-8815-00a0c906bed8} port 4
440:22:49.212681 USBPROXY usbLibGetDevices: Found 3 USB devices, 0 captured
440:23:31.395680 USBPROXY usbLibGetDevices: Starting USB device enumeration
440:23:31.396800 USBPROXY Getting USB descriptor (id 0) failed (dwErr=31) on hub USB#ROOT_HUB30#5&f6577f2&0&0#{f18a0e88-c30c-11d0-8815-00a0c906bed8} port 1
440:23:31.397265 USBPROXY Getting USB descriptor (id 0) failed (dwErr=31) on hub USB#ROOT_HUB30#5&f6577f2&0&0#{f18a0e88-c30c-11d0-8815-00a0c906bed8} port 3
440:23:31.397821 USBPROXY Getting USB descriptor (id 0) failed (dwErr=31) on hub USB#ROOT_HUB30#5&f6577f2&0&0#{f18a0e88-c30c-11d0-8815-00a0c906bed8} port 4
440:23:31.398453 USBPROXY usbLibGetDevices: Found 3 USB devices, 0 captured
440:31:24.535246 dns-monitor HostDnsMonitor: updating information
440:31:24.535483 dns-monitor HostDnsMonitor: old information
440:31:24.535614 dns-monitor   server 1: 192.168.2.246
440:31:24.535632 dns-monitor   server 2: 192.168.2.249
440:31:24.535641 dns-monitor   domain: eff-etudiant.fr
440:31:24.535650 dns-monitor   no search string entries
440:31:24.535659 dns-monitor HostDnsMonitor: new information
440:31:24.535667 dns-monitor   server 1: 172.20.10.1
440:31:24.535675 dns-monitor   no domain set
440:31:24.535683 dns-monitor   no search string entries
440:34:13.862597 USBPROXY usbLibGetDevices: Starting USB device enumeration
440:34:13.863366 USBPROXY Getting USB descriptor (id 0) failed (dwErr=31) on hub USB#ROOT_HUB30#5&f6577f2&0&0#{f18a0e88-c30c-11d0-8815-00a0c906bed8} port 1
440:34:13.863589 USBPROXY Getting USB descriptor (id 0) failed (dwErr=31) on hub USB#ROOT_HUB30#5&f6577f2&0&0#{f18a0e88-c30c-11d0-8815-00a0c906bed8} port 3
440:34:13.863738 USBPROXY Getting USB descriptor (id 0) failed (dwErr=31) on hub USB#ROOT_HUB30#5&f6577f2&0&0#{f18a0e88-c30c-11d0-8815-00a0c906bed8} port 4
440:34:13.864064 USBPROXY usbLibGetDevices: Found 3 USB devices, 0 captured
441:28:09.905841 USBPROXY usbLibGetDevices: Starting USB device enumeration
441:28:09.906665 USBPROXY Getting USB descriptor (id 0) failed (dwErr=31) on hub USB#ROOT_HUB30#5&f6577f2&0&0#{f18a0e88-c30c-11d0-8815-00a0c906bed8} port 1
441:28:09.906894 USBPROXY Getting USB descriptor (id 0) failed (dwErr=31) on hub USB#ROOT_HUB30#5&f6577f2&0&0#{f18a0e88-c30c-11d0-8815-00a0c906bed8} port 3
441:28:09.907028 USBPROXY Getting USB descriptor (id 0) failed (dwErr=31) on hub USB#ROOT_HUB30#5&f6577f2&0&0#{f18a0e88-c30c-11d0-8815-00a0c906bed8} port 4
441:28:09.907369 USBPROXY usbLibGetDevices: Found 3 USB devices, 0 captured
441:32:05.957531 USBPROXY usbLibGetDevices: Starting USB device enumeration
441:32:05.958069 USBPROXY Getting USB descriptor (id 0) failed (dwErr=31) on hub USB#ROOT_HUB30#5&f6577f2&0&0#{f18a0e88-c30c-11d0-8815-00a0c906bed8} port 1
441:32:05.958259 USBPROXY Getting USB descriptor (id 0) failed (dwErr=31) on hub USB#ROOT_HUB30#5&f6577f2&0&0#{f18a0e88-c30c-11d0-8815-00a0c906bed8} port 3
441:32:05.965463 USBPROXY usbLibGetDevices: Found 3 USB devices, 0 captured
452:09:52.134877 dns-monitor HostDnsMonitor: updating information
452:09:52.134974 dns-monitor HostDnsMonitor: old information
452:09:52.134983 dns-monitor   server 1: 172.20.10.1
452:09:52.134991 dns-monitor   no domain set
452:09:52.134996 dns-monitor   no search string entries
452:09:52.135002 dns-monitor HostDnsMonitor: new information
452:09:52.135007 dns-monitor   no server entries
452:09:52.135012 dns-monitor   no domain set
452:09:52.135018 dns-monitor   no search string entries
461:11:28.969427 dns-monitor HostDnsMonitor: updating information
461:11:29.451655 dns-monitor Log rotated - Log started 2022-08-25T02:00:37.806831100Z
