00:00:00.004753 main     VirtualBox COM Server 6.1.12 r139181 win.amd64 (Jul 10 2020 22:02:01) release log
00:00:00.004756 main     Log opened 2022-10-10T11:08:17.542926600Z
00:00:00.004757 main     Build Type: release
00:00:00.004761 main     OS Product: Windows 10
00:00:00.004762 main     OS Release: 10.0.22000
00:00:00.004763 main     OS Service Pack: 
00:00:00.044599 main     DMI Product Name: Inspiron 5515
00:00:00.063488 main     DMI Product Version: 1.11.1
00:00:00.063504 main     Firmware type: UEFI
00:00:00.063837 main     Secure Boot: VERR_PRIVILEGE_NOT_HELD
00:00:00.063855 main     Host RAM: 15720MB (15.3GB) total, 6822MB (6.6GB) available
00:00:00.063860 main     Executable: C:\Program Files\Oracle\VirtualBox\VBoxSVC.exe
00:00:00.063861 main     Process ID: 13040
00:00:00.063861 main     Package type: WINDOWS_64BITS_GENERIC
00:00:00.165946          VirtualBox: object creation starts
00:00:00.166260          Home directory: 'C:\Users\bapti\.VirtualBox'
00:00:00.166431          Installed Drivers:
00:00:00.173996            C:\Windows\system32\DRIVERS\VBoxNetLwf.sys (Version: 6.1.12.39181)
00:00:00.175357            C:\Windows\system32\DRIVERS\VBoxUSBMon.sys (Version: 6.1.12.39181)
00:00:00.176014            C:\Windows\system32\DRIVERS\VBoxDrv.sys (Version: 6.1.12.39181)
00:00:00.177591            C:\Windows\system32\DRIVERS\VBoxNetAdp6.sys (Version: 6.1.12.39181)
00:00:00.194615          Loading settings file "C:\Users\bapti\.VirtualBox\VirtualBox.xml" with version "1.12-windows"
00:00:00.197688          usbLibGetDevices: Starting USB device enumeration
00:00:00.198054          Getting USB descriptor (id 0) failed (dwErr=31) on hub USB#ROOT_HUB30#5&f6577f2&0&0#{f18a0e88-c30c-11d0-8815-00a0c906bed8} port 1
00:00:00.198176          Getting USB descriptor (id 0) failed (dwErr=31) on hub USB#ROOT_HUB30#5&f6577f2&0&0#{f18a0e88-c30c-11d0-8815-00a0c906bed8} port 3
00:00:00.198256          Getting USB descriptor (id 0) failed (dwErr=31) on hub USB#ROOT_HUB30#5&f6577f2&0&0#{f18a0e88-c30c-11d0-8815-00a0c906bed8} port 4
00:00:00.201226          usbLibGetDevices: Found 3 USB devices, 0 captured
00:00:00.201280          USB: Unknown USB device detected (idVendor: 0x0c45, idProduct: 0x6725)
00:00:00.201326          USB: Unknown USB device detected (idVendor: 0x0cf3, idProduct: 0xe007)
00:00:00.201341          USB: Unknown USB device detected (idVendor: 0x27c6, idProduct: 0x639c)
00:00:00.338716          HostDnsMonitor: initializing
00:00:00.349167          HostDnsMonitor: updating information
00:00:00.349203          HostDnsMonitor: old information
00:00:00.349204            no server entries
00:00:00.349205            no domain set
00:00:00.349206            no search string entries
00:00:00.349206          HostDnsMonitor: new information
00:00:00.349207            server 1: 172.20.10.1
00:00:00.349208            no domain set
00:00:00.349208            no search string entries
00:00:00.430300          VD: VDInit finished with VINF_SUCCESS
00:00:00.441330          Loading settings file "C:\Users\bapti\OneDrive\Bureau\new pc\VirtualBox VMs\Windows 2012 (64-bit) - Backup\Windows 2012 (64-bit) - Backup.vbox" with version "1.15-windows"
00:00:00.452631          Loading settings file "C:\Users\bapti\OneDrive\Bureau\new pc\VirtualBox VMs\Windows 2012 (64-bit) - VM2\Windows 2012 (64-bit) - VM2.vbox" with version "1.15-windows"
00:00:00.462695          Loading settings file "C:\Users\bapti\OneDrive\Bureau\Virtualbox\VMnew\VMnew.vbox" with version "1.15-windows"
00:00:00.473140          Loading settings file "C:\Users\bapti\OneDrive\Bureau\Virtualbox\VMclient\VMclient.vbox" with version "1.15-windows"
00:00:00.482565          Loading settings file "C:\Users\bapti\OneDrive\Bureau\Virtualbox\Ubuntu\Ubuntu.vbox" with version "1.16-windows"
00:00:00.493145          Loading settings file "C:\Users\bapti\OneDrive\Bureau\new pc\VirtualBox VMs\Debian\Debian.vbox" with version "1.16-windows"
00:00:00.494295          VirtualBox: object created
00:00:03.842121          Saving settings file "C:\Users\bapti\.VirtualBox\VirtualBox.xml" with version "1.12-windows"
00:00:03.865081          Saving settings file "C:\Users\bapti\.VirtualBox\VirtualBox.xml" with version "1.12-windows"
00:00:05.159147          Launched VM: 73558256 pid: 34484 (0x86b4) frontend: GUI/Qt name: Debian
00:00:11.619474          ERROR [COM]: aRC=VBOX_E_OBJECT_NOT_FOUND (0x80bb0001) aIID={70401eef-c8e9-466b-9660-45cb3e9979e4} aComponent={ExtPackManagerWrap} aText={No extension pack by the name 'Oracle VM VirtualBox Extension Pack' was found}, preserve=false aResultDetail=0
00:00:11.875125          ERROR [COM]: aRC=VBOX_E_IPRT_ERROR (0x80bb0005) aIID={85632c68-b5bb-4316-a900-5eb28d3413df} aComponent={SessionMachine} aText={Saved screenshot data is not available (VERR_NOT_SUPPORTED)}, preserve=false aResultDetail=-37
00:00:12.808366          NetworkServiceRunning: started 'VBoxNetDHCP.exe', pid 000070e4
00:02:47.092572 dns-monitor HostDnsMonitor: updating information
00:02:47.092665 dns-monitor HostDnsMonitor: unchanged
00:07:24.764160 dns-monitor HostDnsMonitor: updating information
00:07:24.764208 dns-monitor HostDnsMonitor: unchanged
00:15:42.074003 dns-monitor HostDnsMonitor: updating information
00:15:42.074043 dns-monitor HostDnsMonitor: unchanged
00:18:30.178587 dns-monitor HostDnsMonitor: updating information
00:18:30.178636 dns-monitor HostDnsMonitor: unchanged
00:56:36.304280 dns-monitor HostDnsMonitor: updating information
00:56:36.304379 dns-monitor HostDnsMonitor: old information
00:56:36.304386 dns-monitor   server 1: 172.20.10.1
00:56:36.304392 dns-monitor   no domain set
00:56:36.304396 dns-monitor   no search string entries
00:56:36.304401 dns-monitor HostDnsMonitor: new information
00:56:36.304405 dns-monitor   server 1: 192.168.2.246
00:56:36.304409 dns-monitor   server 2: 192.168.2.249
00:56:36.304414 dns-monitor   domain: eff-etudiant.fr
00:56:36.304418 dns-monitor   no search string entries
00:57:50.246973 dns-monitor HostDnsMonitor: updating information
00:57:50.247024 dns-monitor HostDnsMonitor: unchanged
01:27:30.570374          Saving settings file "C:\Users\bapti\OneDrive\Bureau\new pc\VirtualBox VMs\Debian\Debian.vbox" with version "1.16-windows"
01:27:31.234474          Saving settings file "C:\Users\bapti\OneDrive\Bureau\new pc\VirtualBox VMs\Debian\Debian.vbox" with version "1.16-windows"
01:27:44.287844          Launched VM: 73588432 pid: 27604 (0x6bd4) frontend: GUI/Qt name: Debian
01:27:48.811698          ERROR [COM]: aRC=VBOX_E_OBJECT_NOT_FOUND (0x80bb0001) aIID={70401eef-c8e9-466b-9660-45cb3e9979e4} aComponent={ExtPackManagerWrap} aText={No extension pack by the name 'Oracle VM VirtualBox Extension Pack' was found}, preserve=false aResultDetail=0
01:27:49.044826          ERROR [COM]: aRC=VBOX_E_IPRT_ERROR (0x80bb0005) aIID={85632c68-b5bb-4316-a900-5eb28d3413df} aComponent={SessionMachine} aText={Saved screenshot data is not available (VERR_NOT_SUPPORTED)}, preserve=false aResultDetail=-37
01:27:49.842301          ERROR [COM]: aRC=VBOX_E_OBJECT_IN_USE (0x80bb000c) aIID={cadef0a2-a1a9-4ac2-8e80-c049af69dac8} aComponent={DHCPServerWrap} aText={Cannot start DHCP server because it is already running (pid 000070e4)}, preserve=false aResultDetail=-51
01:27:51.163832 dns-monitor HostDnsMonitor: updating information
01:27:51.163875 dns-monitor HostDnsMonitor: unchanged
01:58:11.231499 dns-monitor HostDnsMonitor: updating information
01:58:11.231616 dns-monitor HostDnsMonitor: unchanged
02:28:31.094815 dns-monitor HostDnsMonitor: updating information
02:28:31.094932 dns-monitor HostDnsMonitor: unchanged
02:31:32.721738 dns-monitor HostDnsMonitor: updating information
02:31:32.721801 dns-monitor HostDnsMonitor: unchanged
02:40:59.766288          Saving settings file "C:\Users\bapti\OneDrive\Bureau\new pc\VirtualBox VMs\Debian\Debian.vbox" with version "1.16-windows"
02:41:00.372334          Saving settings file "C:\Users\bapti\OneDrive\Bureau\new pc\VirtualBox VMs\Debian\Debian.vbox" with version "1.16-windows"
02:41:03.399153          Saving settings file "C:\Users\bapti\.VirtualBox\VirtualBox.xml" with version "1.12-windows"
02:41:03.406211          Saving settings file "C:\Users\bapti\.VirtualBox\VirtualBox.xml" with version "1.12-windows"
02:41:08.927234 main     VirtualBox: object deletion starts
02:41:08.927539 main     ERROR [COM]: aRC=VBOX_E_OBJECT_IN_USE (0x80bb000c) aIID={ad47ad09-787b-44ab-b343-a082a3f2dfb1} aComponent={MediumWrap} aText={Medium 'C:\Users\bapti\OneDrive\Bureau\new pc\VirtualBox VMs\Windows 2012 (64-bit) - Backup\Snapshots/{717abd98-db29-4d6b-9797-8a103de32bac}.vdi' cannot be closed because it is still attached to 1 virtual machines}, preserve=false aResultDetail=0
02:41:08.927834 main     ERROR [COM]: aRC=VBOX_E_OBJECT_IN_USE (0x80bb000c) aIID={ad47ad09-787b-44ab-b343-a082a3f2dfb1} aComponent={MediumWrap} aText={Medium 'C:\Users\bapti\OneDrive\Bureau\new pc\VirtualBox VMs\Windows 2012 (64-bit) - Backup\Snapshots/{595a5e5f-572e-4f2c-83cc-88c4aae6eaa5}.vdi' cannot be closed because it is still attached to 1 virtual machines}, preserve=false aResultDetail=0
02:41:08.927942 main     ERROR [COM]: aRC=VBOX_E_OBJECT_IN_USE (0x80bb000c) aIID={ad47ad09-787b-44ab-b343-a082a3f2dfb1} aComponent={MediumWrap} aText={Medium 'C:\Users\bapti\OneDrive\Bureau\new pc\VirtualBox VMs\Windows 2012 (64-bit) - Backup\Windows 2012 (64-bit) - Backup.vdi' cannot be closed because it is still attached to 1 virtual machines}, preserve=false aResultDetail=0
02:41:08.929471 main     ERROR [COM]: aRC=VBOX_E_OBJECT_IN_USE (0x80bb000c) aIID={ad47ad09-787b-44ab-b343-a082a3f2dfb1} aComponent={MediumWrap} aText={Medium 'C:\Users\bapti\OneDrive\Bureau\new pc\VirtualBox VMs\Windows 2012 (64-bit) - VM2\Windows 2012 (64-bit) - Base1.vdi' cannot be closed because it is still attached to 1 virtual machines}, preserve=false aResultDetail=0
02:41:08.929939 main     ERROR [COM]: aRC=VBOX_E_OBJECT_IN_USE (0x80bb000c) aIID={ad47ad09-787b-44ab-b343-a082a3f2dfb1} aComponent={MediumWrap} aText={Medium 'C:\Users\bapti\OneDrive\Bureau\Virtualbox\VMnew\VMnew.vdi' cannot be closed because it is still attached to 1 virtual machines}, preserve=false aResultDetail=0
02:41:08.930245 main     ERROR [COM]: aRC=VBOX_E_OBJECT_IN_USE (0x80bb000c) aIID={ad47ad09-787b-44ab-b343-a082a3f2dfb1} aComponent={MediumWrap} aText={Medium 'C:\Users\bapti\OneDrive\Bureau\Virtualbox\VMclient\VMclient.vdi' cannot be closed because it is still attached to 1 virtual machines}, preserve=false aResultDetail=0
02:41:08.930667 main     ERROR [COM]: aRC=VBOX_E_OBJECT_IN_USE (0x80bb000c) aIID={ad47ad09-787b-44ab-b343-a082a3f2dfb1} aComponent={MediumWrap} aText={Medium 'C:\Users\bapti\OneDrive\Bureau\Virtualbox\Ubuntu\Ubuntu.vdi' cannot be closed because it is still attached to 1 virtual machines}, preserve=false aResultDetail=0
02:41:08.931059 main     ERROR [COM]: aRC=VBOX_E_OBJECT_IN_USE (0x80bb000c) aIID={ad47ad09-787b-44ab-b343-a082a3f2dfb1} aComponent={MediumWrap} aText={Medium 'C:\Users\bapti\OneDrive\Bureau\new pc\VirtualBox VMs\Debian\Debian.vdi' cannot be closed because it is still attached to 1 virtual machines}, preserve=false aResultDetail=0
02:41:08.931080 main     ERROR [COM]: aRC=VBOX_E_OBJECT_IN_USE (0x80bb000c) aIID={ad47ad09-787b-44ab-b343-a082a3f2dfb1} aComponent={MediumWrap} aText={Medium 'C:\Users\bapti\OneDrive\Bureau\new pc\VirtualBox VMs\Debian\Debian_1.vdi' cannot be closed because it is still attached to 1 virtual machines}, preserve=false aResultDetail=0
02:41:08.931541 main     NetworkServiceRunning: killing VBoxNetDHCP.exe, pid 000070e4...
02:41:08.936876 main     HostDnsMonitor: shutting down ...
02:41:08.936957 main     HostDnsMonitor: shut down
02:41:08.941034 Watcher  ERROR [COM]: aRC=E_ACCESSDENIED (0x80070005) aIID={d0a0163f-e254-4e5b-a1f2-011cf991c38d} aComponent={VirtualBoxWrap} aText={The object is not ready}, preserve=false aResultDetail=0
02:41:08.941867 main     VirtualBox: object deleted
