00:00:00.003064 main     VirtualBox COM Server 6.1.12 r139181 win.amd64 (Jul 10 2020 22:02:01) release log
00:00:00.003066 main     Log opened 2022-09-19T14:11:52.617662300Z
00:00:00.003066 main     Build Type: release
00:00:00.003069 main     OS Product: Windows 10
00:00:00.003070 main     OS Release: 10.0.22000
00:00:00.003070 main     OS Service Pack: 
00:00:00.027207 main     DMI Product Name: Inspiron 5515
00:00:00.040784 main     DMI Product Version: 1.11.1
00:00:00.040797 main     Firmware type: UEFI
00:00:00.041048 main     Secure Boot: VERR_PRIVILEGE_NOT_HELD
00:00:00.041062 main     Host RAM: 15720MB (15.3GB) total, 11384MB (11.1GB) available
00:00:00.041064 main     Executable: C:\Program Files\Oracle\VirtualBox\VBoxSVC.exe
00:00:00.041065 main     Process ID: 16080
00:00:00.041065 main     Package type: WINDOWS_64BITS_GENERIC
00:00:00.119231          VirtualBox: object creation starts
00:00:00.119452          Home directory: 'C:\Users\bapti\.VirtualBox'
00:00:00.119567          Installed Drivers:
00:00:00.122807            C:\Windows\system32\DRIVERS\VBoxNetLwf.sys (Version: 6.1.12.39181)
00:00:00.123729            C:\Windows\system32\DRIVERS\VBoxUSBMon.sys (Version: 6.1.12.39181)
00:00:00.124196            C:\Windows\system32\DRIVERS\VBoxDrv.sys (Version: 6.1.12.39181)
00:00:00.125340            C:\Windows\system32\DRIVERS\VBoxNetAdp6.sys (Version: 6.1.12.39181)
00:00:00.137464          Loading settings file "C:\Users\bapti\.VirtualBox\VirtualBox.xml" with version "1.12-windows"
00:00:00.139209          usbLibGetDevices: Starting USB device enumeration
00:00:00.139467          Getting USB descriptor (id 0) failed (dwErr=31) on hub USB#ROOT_HUB30#5&32671a4f&0&0#{f18a0e88-c30c-11d0-8815-00a0c906bed8} port 2
00:00:00.139687          Getting USB descriptor (id 0) failed (dwErr=31) on hub USB#ROOT_HUB30#5&f6577f2&0&0#{f18a0e88-c30c-11d0-8815-00a0c906bed8} port 1
00:00:00.139790          Getting USB descriptor (id 0) failed (dwErr=31) on hub USB#ROOT_HUB30#5&f6577f2&0&0#{f18a0e88-c30c-11d0-8815-00a0c906bed8} port 3
00:00:00.139848          Getting USB descriptor (id 0) failed (dwErr=31) on hub USB#ROOT_HUB30#5&f6577f2&0&0#{f18a0e88-c30c-11d0-8815-00a0c906bed8} port 4
00:00:00.141669          usbLibGetDevices: Found 4 USB devices, 0 captured
00:00:00.142967          USB: Unknown USB device detected (idVendor: 0x05ac, idProduct: 0x1393)
00:00:00.143039          USB: Unknown USB device detected (idVendor: 0x0c45, idProduct: 0x6725)
00:00:00.143063          USB: Unknown USB device detected (idVendor: 0x0cf3, idProduct: 0xe007)
00:00:00.143080          USB: Unknown USB device detected (idVendor: 0x27c6, idProduct: 0x639c)
00:00:00.176122          HostDnsMonitor: initializing
00:00:00.184548          HostDnsMonitor: updating information
00:00:00.184569          HostDnsMonitor: old information
00:00:00.184569            no server entries
00:00:00.184570            no domain set
00:00:00.184570            no search string entries
00:00:00.184571          HostDnsMonitor: new information
00:00:00.184571            server 1: 192.168.2.246
00:00:00.184571            server 2: 192.168.2.249
00:00:00.184572            domain: eff-etudiant.fr
00:00:00.184572            no search string entries
00:00:00.228915          VD: VDInit finished with VINF_SUCCESS
00:00:00.236199          Loading settings file "C:\Users\bapti\OneDrive\Bureau\new pc\VirtualBox VMs\Windows 2012 (64-bit) - Backup\Windows 2012 (64-bit) - Backup.vbox" with version "1.15-windows"
00:00:00.244315          Loading settings file "C:\Users\bapti\OneDrive\Bureau\new pc\VirtualBox VMs\Windows 2012 (64-bit) - VM2\Windows 2012 (64-bit) - VM2.vbox" with version "1.15-windows"
00:00:00.250302          Loading settings file "C:\Users\bapti\OneDrive\Bureau\Virtualbox\VMnew\VMnew.vbox" with version "1.15-windows"
00:00:00.256304          Loading settings file "C:\Users\bapti\OneDrive\Bureau\Virtualbox\VMclient\VMclient.vbox" with version "1.15-windows"
00:00:00.262630          Loading settings file "C:\Users\bapti\OneDrive\Bureau\Virtualbox\Ubuntu\Ubuntu.vbox" with version "1.16-windows"
00:00:00.269016          Loading settings file "C:\Users\bapti\OneDrive\Bureau\new pc\VirtualBox VMs\Debian\Debian.vbox" with version "1.16-windows"
00:00:00.270293          VirtualBox: object created
00:00:02.484800 USBPROXY usbLibGetDevices: Starting USB device enumeration
00:00:02.485138 USBPROXY Getting USB descriptor (id 0) failed (dwErr=31) on hub USB#ROOT_HUB30#5&32671a4f&0&0#{f18a0e88-c30c-11d0-8815-00a0c906bed8} port 2
00:00:02.488564 USBPROXY Getting USB descriptor (id 0) failed (dwErr=31) on hub USB#ROOT_HUB30#5&f6577f2&0&0#{f18a0e88-c30c-11d0-8815-00a0c906bed8} port 3
00:00:02.488681 USBPROXY Getting USB descriptor (id 0) failed (dwErr=31) on hub USB#ROOT_HUB30#5&f6577f2&0&0#{f18a0e88-c30c-11d0-8815-00a0c906bed8} port 4
00:00:02.488927 USBPROXY usbLibGetDevices: Found 4 USB devices, 0 captured
00:00:02.916536          Launched VM: 77342480 pid: 17252 (0x4364) frontend: GUI/Qt name: Ubuntu
00:00:09.214209 USBPROXY usbLibGetDevices: Starting USB device enumeration
00:00:09.214477 USBPROXY Getting USB descriptor (id 0) failed (dwErr=31) on hub USB#ROOT_HUB30#5&32671a4f&0&0#{f18a0e88-c30c-11d0-8815-00a0c906bed8} port 2
00:00:09.214684 USBPROXY Getting USB descriptor (id 0) failed (dwErr=31) on hub USB#ROOT_HUB30#5&f6577f2&0&0#{f18a0e88-c30c-11d0-8815-00a0c906bed8} port 1
00:00:09.214784 USBPROXY Getting USB descriptor (id 0) failed (dwErr=31) on hub USB#ROOT_HUB30#5&f6577f2&0&0#{f18a0e88-c30c-11d0-8815-00a0c906bed8} port 3
00:00:09.214886 USBPROXY Getting USB descriptor (id 0) failed (dwErr=31) on hub USB#ROOT_HUB30#5&f6577f2&0&0#{f18a0e88-c30c-11d0-8815-00a0c906bed8} port 4
00:00:09.215071 USBPROXY usbLibGetDevices: Found 4 USB devices, 0 captured
00:00:09.803967          Launched VM: 77372368 pid: 20056 (0x4e58) frontend: GUI/Qt name: Debian
00:00:10.065675          ERROR [COM]: aRC=VBOX_E_OBJECT_NOT_FOUND (0x80bb0001) aIID={70401eef-c8e9-466b-9660-45cb3e9979e4} aComponent={ExtPackManagerWrap} aText={No extension pack by the name 'Oracle VM VirtualBox Extension Pack' was found}, preserve=false aResultDetail=0
00:00:10.364441          ERROR [COM]: aRC=VBOX_E_IPRT_ERROR (0x80bb0005) aIID={85632c68-b5bb-4316-a900-5eb28d3413df} aComponent={SessionMachine} aText={Saved screenshot data is not available (VERR_NOT_SUPPORTED)}, preserve=false aResultDetail=-37
00:00:14.573990          ERROR [COM]: aRC=VBOX_E_OBJECT_NOT_FOUND (0x80bb0001) aIID={70401eef-c8e9-466b-9660-45cb3e9979e4} aComponent={ExtPackManagerWrap} aText={No extension pack by the name 'Oracle VM VirtualBox Extension Pack' was found}, preserve=false aResultDetail=0
00:00:14.865579          ERROR [COM]: aRC=VBOX_E_IPRT_ERROR (0x80bb0005) aIID={85632c68-b5bb-4316-a900-5eb28d3413df} aComponent={SessionMachine} aText={Saved screenshot data is not available (VERR_NOT_SUPPORTED)}, preserve=false aResultDetail=-37
00:00:19.070420          Saving settings file "C:\Users\bapti\OneDrive\Bureau\new pc\VirtualBox VMs\Debian\Debian.vbox" with version "1.16-windows"
00:00:24.217745          Saving settings file "C:\Users\bapti\OneDrive\Bureau\Virtualbox\Ubuntu\Ubuntu.vbox" with version "1.16-windows"
00:00:24.741868          Saving settings file "C:\Users\bapti\OneDrive\Bureau\Virtualbox\Ubuntu\Ubuntu.vbox" with version "1.16-windows"
00:01:32.005332 USBPROXY usbLibGetDevices: Starting USB device enumeration
00:01:32.005695 USBPROXY Getting USB descriptor (id 0) failed (dwErr=31) on hub USB#ROOT_HUB30#5&32671a4f&0&0#{f18a0e88-c30c-11d0-8815-00a0c906bed8} port 2
00:01:32.005986 USBPROXY Getting USB descriptor (id 0) failed (dwErr=31) on hub USB#ROOT_HUB30#5&f6577f2&0&0#{f18a0e88-c30c-11d0-8815-00a0c906bed8} port 1
00:01:32.006125 USBPROXY Getting USB descriptor (id 0) failed (dwErr=31) on hub USB#ROOT_HUB30#5&f6577f2&0&0#{f18a0e88-c30c-11d0-8815-00a0c906bed8} port 3
00:01:32.006244 USBPROXY Getting USB descriptor (id 0) failed (dwErr=31) on hub USB#ROOT_HUB30#5&f6577f2&0&0#{f18a0e88-c30c-11d0-8815-00a0c906bed8} port 4
00:01:32.006524 USBPROXY usbLibGetDevices: Found 4 USB devices, 0 captured
00:01:58.013424          Saving settings file "C:\Users\bapti\OneDrive\Bureau\new pc\VirtualBox VMs\Debian\Debian.vbox" with version "1.16-windows"
00:01:58.047127          Saving settings file "C:\Users\bapti\OneDrive\Bureau\new pc\VirtualBox VMs\Debian\Debian.vbox" with version "1.16-windows"
00:01:58.594108          Saving settings file "C:\Users\bapti\OneDrive\Bureau\new pc\VirtualBox VMs\Debian\Debian.vbox" with version "1.16-windows"
00:01:58.618862          Saving settings file "C:\Users\bapti\OneDrive\Bureau\new pc\VirtualBox VMs\Debian\Debian.vbox" with version "1.16-windows"
00:02:00.222193          Launched VM: 77358016 pid: 11508 (0x2cf4) frontend: GUI/Qt name: Debian
00:02:03.235978          ERROR [COM]: aRC=VBOX_E_OBJECT_NOT_FOUND (0x80bb0001) aIID={70401eef-c8e9-466b-9660-45cb3e9979e4} aComponent={ExtPackManagerWrap} aText={No extension pack by the name 'Oracle VM VirtualBox Extension Pack' was found}, preserve=false aResultDetail=0
00:02:03.356044          ERROR [COM]: aRC=VBOX_E_IPRT_ERROR (0x80bb0005) aIID={85632c68-b5bb-4316-a900-5eb28d3413df} aComponent={SessionMachine} aText={Saved screenshot data is not available (VERR_NOT_SUPPORTED)}, preserve=false aResultDetail=-37
00:11:43.836179 USBPROXY usbLibGetDevices: Starting USB device enumeration
00:11:43.836416 USBPROXY Getting USB descriptor (id 0) failed (dwErr=31) on hub USB#ROOT_HUB30#5&f6577f2&0&0#{f18a0e88-c30c-11d0-8815-00a0c906bed8} port 1
00:11:43.836479 USBPROXY Getting USB descriptor (id 0) failed (dwErr=31) on hub USB#ROOT_HUB30#5&f6577f2&0&0#{f18a0e88-c30c-11d0-8815-00a0c906bed8} port 3
00:11:43.836533 USBPROXY Getting USB descriptor (id 0) failed (dwErr=31) on hub USB#ROOT_HUB30#5&f6577f2&0&0#{f18a0e88-c30c-11d0-8815-00a0c906bed8} port 4
00:11:43.836670 USBPROXY usbLibGetDevices: Found 3 USB devices, 0 captured
00:11:49.056068 USBPROXY usbLibGetDevices: Starting USB device enumeration
00:11:49.067040 USBPROXY Getting USB descriptor (id 0) failed (dwErr=31) on hub USB#ROOT_HUB30#5&f6577f2&0&0#{f18a0e88-c30c-11d0-8815-00a0c906bed8} port 1
00:11:49.067103 USBPROXY Getting USB descriptor (id 0) failed (dwErr=31) on hub USB#ROOT_HUB30#5&f6577f2&0&0#{f18a0e88-c30c-11d0-8815-00a0c906bed8} port 3
00:11:49.067147 USBPROXY Getting USB descriptor (id 0) failed (dwErr=31) on hub USB#ROOT_HUB30#5&f6577f2&0&0#{f18a0e88-c30c-11d0-8815-00a0c906bed8} port 4
00:11:49.067260 USBPROXY usbLibGetDevices: Found 4 USB devices, 0 captured
00:12:08.318842          Saving settings file "C:\Users\bapti\OneDrive\Bureau\new pc\VirtualBox VMs\Debian\Debian.vbox" with version "1.16-windows"
00:12:12.297615 dns-monitor HostDnsMonitor: updating information
00:12:12.297658 dns-monitor HostDnsMonitor: unchanged
00:16:04.795246 USBPROXY usbLibGetDevices: Starting USB device enumeration
00:16:04.795640 USBPROXY Getting USB descriptor (id 0) failed (dwErr=31) on hub USB#ROOT_HUB30#5&f6577f2&0&0#{f18a0e88-c30c-11d0-8815-00a0c906bed8} port 1
00:16:04.795750 USBPROXY Getting USB descriptor (id 0) failed (dwErr=31) on hub USB#ROOT_HUB30#5&f6577f2&0&0#{f18a0e88-c30c-11d0-8815-00a0c906bed8} port 3
00:16:04.795854 USBPROXY Getting USB descriptor (id 0) failed (dwErr=31) on hub USB#ROOT_HUB30#5&f6577f2&0&0#{f18a0e88-c30c-11d0-8815-00a0c906bed8} port 4
00:16:04.796239 USBPROXY usbLibGetDevices: Found 3 USB devices, 0 captured
00:16:10.199042 USBPROXY usbLibGetDevices: Starting USB device enumeration
00:16:10.210558 USBPROXY Getting USB descriptor (id 0) failed (dwErr=31) on hub USB#ROOT_HUB30#5&f6577f2&0&0#{f18a0e88-c30c-11d0-8815-00a0c906bed8} port 1
00:16:10.210670 USBPROXY Getting USB descriptor (id 0) failed (dwErr=31) on hub USB#ROOT_HUB30#5&f6577f2&0&0#{f18a0e88-c30c-11d0-8815-00a0c906bed8} port 3
00:16:10.210753 USBPROXY Getting USB descriptor (id 0) failed (dwErr=31) on hub USB#ROOT_HUB30#5&f6577f2&0&0#{f18a0e88-c30c-11d0-8815-00a0c906bed8} port 4
00:16:10.210915 USBPROXY usbLibGetDevices: Found 4 USB devices, 0 captured
00:16:44.283047 USBPROXY usbLibGetDevices: Starting USB device enumeration
00:16:44.283485 USBPROXY Getting USB descriptor (id 0) failed (dwErr=31) on hub USB#ROOT_HUB30#5&f6577f2&0&0#{f18a0e88-c30c-11d0-8815-00a0c906bed8} port 1
00:16:44.283607 USBPROXY Getting USB descriptor (id 0) failed (dwErr=31) on hub USB#ROOT_HUB30#5&f6577f2&0&0#{f18a0e88-c30c-11d0-8815-00a0c906bed8} port 3
00:16:44.283659 USBPROXY Getting USB descriptor (id 0) failed (dwErr=31) on hub USB#ROOT_HUB30#5&f6577f2&0&0#{f18a0e88-c30c-11d0-8815-00a0c906bed8} port 4
00:16:44.283771 USBPROXY usbLibGetDevices: Found 3 USB devices, 0 captured
00:16:58.865210 USBPROXY usbLibGetDevices: Starting USB device enumeration
00:16:58.868206 USBPROXY Getting USB descriptor (id 0) failed (dwErr=31) on hub USB#ROOT_HUB30#5&f6577f2&0&0#{f18a0e88-c30c-11d0-8815-00a0c906bed8} port 1
00:16:58.868273 USBPROXY Getting USB descriptor (id 0) failed (dwErr=31) on hub USB#ROOT_HUB30#5&f6577f2&0&0#{f18a0e88-c30c-11d0-8815-00a0c906bed8} port 3
00:16:58.868324 USBPROXY Getting USB descriptor (id 0) failed (dwErr=31) on hub USB#ROOT_HUB30#5&f6577f2&0&0#{f18a0e88-c30c-11d0-8815-00a0c906bed8} port 4
00:16:58.868432 USBPROXY usbLibGetDevices: Found 4 USB devices, 0 captured
00:17:01.159521 USBPROXY usbLibGetDevices: Starting USB device enumeration
00:17:01.159931 USBPROXY Getting USB descriptor (id 0) failed (dwErr=31) on hub USB#ROOT_HUB30#5&f6577f2&0&0#{f18a0e88-c30c-11d0-8815-00a0c906bed8} port 1
00:17:01.160055 USBPROXY Getting USB descriptor (id 0) failed (dwErr=31) on hub USB#ROOT_HUB30#5&f6577f2&0&0#{f18a0e88-c30c-11d0-8815-00a0c906bed8} port 3
00:17:01.160166 USBPROXY Getting USB descriptor (id 0) failed (dwErr=31) on hub USB#ROOT_HUB30#5&f6577f2&0&0#{f18a0e88-c30c-11d0-8815-00a0c906bed8} port 4
00:17:01.160373 USBPROXY usbLibGetDevices: Found 3 USB devices, 0 captured
00:17:04.849695 USBPROXY usbLibGetDevices: Starting USB device enumeration
00:17:04.860454 USBPROXY Getting USB descriptor (id 0) failed (dwErr=31) on hub USB#ROOT_HUB30#5&f6577f2&0&0#{f18a0e88-c30c-11d0-8815-00a0c906bed8} port 1
00:17:04.860560 USBPROXY Getting USB descriptor (id 0) failed (dwErr=31) on hub USB#ROOT_HUB30#5&f6577f2&0&0#{f18a0e88-c30c-11d0-8815-00a0c906bed8} port 3
00:17:04.860625 USBPROXY Getting USB descriptor (id 0) failed (dwErr=31) on hub USB#ROOT_HUB30#5&f6577f2&0&0#{f18a0e88-c30c-11d0-8815-00a0c906bed8} port 4
00:17:04.860798 USBPROXY usbLibGetDevices: Found 4 USB devices, 0 captured
00:17:30.491814 USBPROXY usbLibGetDevices: Starting USB device enumeration
00:17:30.492077 USBPROXY Getting USB descriptor (id 0) failed (dwErr=31) on hub USB#ROOT_HUB30#5&f6577f2&0&0#{f18a0e88-c30c-11d0-8815-00a0c906bed8} port 1
00:17:30.492159 USBPROXY Getting USB descriptor (id 0) failed (dwErr=31) on hub USB#ROOT_HUB30#5&f6577f2&0&0#{f18a0e88-c30c-11d0-8815-00a0c906bed8} port 3
00:17:30.492229 USBPROXY Getting USB descriptor (id 0) failed (dwErr=31) on hub USB#ROOT_HUB30#5&f6577f2&0&0#{f18a0e88-c30c-11d0-8815-00a0c906bed8} port 4
00:17:30.492359 USBPROXY usbLibGetDevices: Found 3 USB devices, 0 captured
00:17:33.332981 USBPROXY usbLibGetDevices: Starting USB device enumeration
00:17:33.344374 USBPROXY Getting USB descriptor (id 0) failed (dwErr=31) on hub USB#ROOT_HUB30#5&f6577f2&0&0#{f18a0e88-c30c-11d0-8815-00a0c906bed8} port 1
00:17:33.344443 USBPROXY Getting USB descriptor (id 0) failed (dwErr=31) on hub USB#ROOT_HUB30#5&f6577f2&0&0#{f18a0e88-c30c-11d0-8815-00a0c906bed8} port 3
00:17:33.344491 USBPROXY Getting USB descriptor (id 0) failed (dwErr=31) on hub USB#ROOT_HUB30#5&f6577f2&0&0#{f18a0e88-c30c-11d0-8815-00a0c906bed8} port 4
00:17:33.344621 USBPROXY usbLibGetDevices: Found 4 USB devices, 0 captured
00:24:13.941344 USBPROXY usbLibGetDevices: Starting USB device enumeration
00:24:13.941719 USBPROXY Getting USB descriptor (id 0) failed (dwErr=31) on hub USB#ROOT_HUB30#5&32671a4f&0&0#{f18a0e88-c30c-11d0-8815-00a0c906bed8} port 2
00:24:13.941964 USBPROXY Getting USB descriptor (id 0) failed (dwErr=31) on hub USB#ROOT_HUB30#5&f6577f2&0&0#{f18a0e88-c30c-11d0-8815-00a0c906bed8} port 1
00:24:13.942098 USBPROXY Getting USB descriptor (id 0) failed (dwErr=31) on hub USB#ROOT_HUB30#5&f6577f2&0&0#{f18a0e88-c30c-11d0-8815-00a0c906bed8} port 3
00:24:13.942317 USBPROXY Getting USB descriptor (id 0) failed (dwErr=31) on hub USB#ROOT_HUB30#5&f6577f2&0&0#{f18a0e88-c30c-11d0-8815-00a0c906bed8} port 4
00:24:13.942549 USBPROXY usbLibGetDevices: Found 4 USB devices, 0 captured
00:24:13.942605 USBPROXY USB: Unknown USB device detected (idVendor: 0x05ac, idProduct: 0x1393)
00:29:35.221125 dns-monitor HostDnsMonitor: updating information
00:29:35.221166 dns-monitor HostDnsMonitor: unchanged
00:44:36.537498          Saving settings file "C:\Users\bapti\OneDrive\Bureau\new pc\VirtualBox VMs\Debian\Debian.vbox" with version "1.16-windows"
00:44:37.174758          Saving settings file "C:\Users\bapti\OneDrive\Bureau\new pc\VirtualBox VMs\Debian\Debian.vbox" with version "1.16-windows"
00:45:10.355250          Saving settings file "C:\Users\bapti\OneDrive\Bureau\new pc\VirtualBox VMs\Debian\Debian.vbox" with version "1.16-windows"
00:45:12.737786          Launched VM: 77116192 pid: 17184 (0x4320) frontend: GUI/Qt name: Debian
00:45:16.989251          ERROR [COM]: aRC=VBOX_E_OBJECT_NOT_FOUND (0x80bb0001) aIID={70401eef-c8e9-466b-9660-45cb3e9979e4} aComponent={ExtPackManagerWrap} aText={No extension pack by the name 'Oracle VM VirtualBox Extension Pack' was found}, preserve=false aResultDetail=0
00:45:17.102843          ERROR [COM]: aRC=VBOX_E_IPRT_ERROR (0x80bb0005) aIID={85632c68-b5bb-4316-a900-5eb28d3413df} aComponent={SessionMachine} aText={Saved screenshot data is not available (VERR_NOT_SUPPORTED)}, preserve=false aResultDetail=-37
00:45:17.577695          NetworkServiceRunning: started 'VBoxNetDHCP.exe', pid 00002f48
00:59:56.782695 dns-monitor HostDnsMonitor: updating information
00:59:56.782734 dns-monitor HostDnsMonitor: unchanged
01:01:40.867736          Saving settings file "C:\Users\bapti\OneDrive\Bureau\new pc\VirtualBox VMs\Debian\Debian.vbox" with version "1.16-windows"
01:01:44.657970          Saving settings file "C:\Users\bapti\.VirtualBox\VirtualBox.xml" with version "1.12-windows"
01:01:44.678968          Saving settings file "C:\Users\bapti\.VirtualBox\VirtualBox.xml" with version "1.12-windows"
01:01:44.685840          Saving settings file "C:\Users\bapti\.VirtualBox\VirtualBox.xml" with version "1.12-windows"
01:01:44.691052          Saving settings file "C:\Users\bapti\.VirtualBox\VirtualBox.xml" with version "1.12-windows"
01:05:09.605807 USBPROXY usbLibGetDevices: Starting USB device enumeration
01:05:09.605997 USBPROXY Getting USB descriptor (id 0) failed (dwErr=31) on hub USB#ROOT_HUB30#5&32671a4f&0&0#{f18a0e88-c30c-11d0-8815-00a0c906bed8} port 2
01:05:09.606123 USBPROXY Getting USB descriptor (id 0) failed (dwErr=31) on hub USB#ROOT_HUB30#5&f6577f2&0&0#{f18a0e88-c30c-11d0-8815-00a0c906bed8} port 1
01:05:09.606186 USBPROXY Getting USB descriptor (id 0) failed (dwErr=31) on hub USB#ROOT_HUB30#5&f6577f2&0&0#{f18a0e88-c30c-11d0-8815-00a0c906bed8} port 3
01:05:09.606229 USBPROXY Getting USB descriptor (id 0) failed (dwErr=31) on hub USB#ROOT_HUB30#5&f6577f2&0&0#{f18a0e88-c30c-11d0-8815-00a0c906bed8} port 4
01:05:09.606338 USBPROXY usbLibGetDevices: Found 4 USB devices, 0 captured
01:16:35.519508          Saving settings file "C:\Users\bapti\OneDrive\Bureau\new pc\VirtualBox VMs\Debian\Debian.vbox" with version "1.16-windows"
01:16:35.550197          ERROR [COM]: aRC=VBOX_E_IPRT_ERROR (0x80bb0005) aIID={85632c68-b5bb-4316-a900-5eb28d3413df} aComponent={SessionMachine} aText={Saved screenshot data is not available (VERR_NOT_SUPPORTED)}, preserve=false aResultDetail=-37
01:20:00.821354 USBPROXY usbLibGetDevices: Starting USB device enumeration
01:20:00.821729 USBPROXY Getting USB descriptor (id 0) failed (dwErr=31) on hub USB#ROOT_HUB30#5&f6577f2&0&0#{f18a0e88-c30c-11d0-8815-00a0c906bed8} port 1
01:20:00.821851 USBPROXY Getting USB descriptor (id 0) failed (dwErr=31) on hub USB#ROOT_HUB30#5&f6577f2&0&0#{f18a0e88-c30c-11d0-8815-00a0c906bed8} port 3
01:20:00.821973 USBPROXY Getting USB descriptor (id 0) failed (dwErr=31) on hub USB#ROOT_HUB30#5&f6577f2&0&0#{f18a0e88-c30c-11d0-8815-00a0c906bed8} port 4
01:20:00.822235 USBPROXY usbLibGetDevices: Found 3 USB devices, 0 captured
01:30:20.509191 dns-monitor HostDnsMonitor: updating information
01:30:20.509238 dns-monitor HostDnsMonitor: unchanged
02:00:43.944735 dns-monitor HostDnsMonitor: updating information
02:00:43.944869 dns-monitor HostDnsMonitor: unchanged
02:03:48.531593 dns-monitor HostDnsMonitor: updating information
02:03:48.531641 dns-monitor HostDnsMonitor: unchanged
02:31:07.031960 dns-monitor HostDnsMonitor: updating information
02:31:07.032074 dns-monitor HostDnsMonitor: unchanged
17:36:20.521487 dns-monitor HostDnsMonitor: updating information
17:36:20.521648 dns-monitor HostDnsMonitor: old information
17:36:20.521666 dns-monitor   server 1: 192.168.2.246
17:36:20.521673 dns-monitor   server 2: 192.168.2.249
17:36:20.521678 dns-monitor   domain: eff-etudiant.fr
17:36:20.521682 dns-monitor   no search string entries
17:36:20.521687 dns-monitor HostDnsMonitor: new information
17:36:20.521693 dns-monitor   server 1: 192.168.1.254
17:36:20.521699 dns-monitor   no domain set
17:36:20.521704 dns-monitor   no search string entries
17:36:32.018299 dns-monitor HostDnsMonitor: updating information
17:36:32.018355 dns-monitor HostDnsMonitor: old information
17:36:32.018371 dns-monitor   server 1: 192.168.1.254
17:36:32.018388 dns-monitor   no domain set
17:36:32.018401 dns-monitor   no search string entries
17:36:32.018415 dns-monitor HostDnsMonitor: new information
17:36:32.018427 dns-monitor   server 1: 192.168.2.246
17:36:32.018440 dns-monitor   server 2: 192.168.2.249
17:36:32.018453 dns-monitor   domain: eff-etudiant.fr
17:36:32.018466 dns-monitor   no search string entries
17:36:47.423330          Saving settings file "C:\Users\bapti\OneDrive\Bureau\new pc\VirtualBox VMs\Debian\Debian.vbox" with version "1.16-windows"
17:36:47.988657          Saving settings file "C:\Users\bapti\OneDrive\Bureau\new pc\VirtualBox VMs\Debian\Debian.vbox" with version "1.16-windows"
17:36:48.027571          Saving settings file "C:\Users\bapti\OneDrive\Bureau\new pc\VirtualBox VMs\Debian\Debian.vbox" with version "1.16-windows"
17:36:54.060523 main     VirtualBox: object deletion starts
17:36:54.060897 main     ERROR [COM]: aRC=VBOX_E_OBJECT_IN_USE (0x80bb000c) aIID={ad47ad09-787b-44ab-b343-a082a3f2dfb1} aComponent={MediumWrap} aText={Medium 'C:\Users\bapti\OneDrive\Bureau\new pc\VirtualBox VMs\Windows 2012 (64-bit) - Backup\Snapshots/{717abd98-db29-4d6b-9797-8a103de32bac}.vdi' cannot be closed because it is still attached to 1 virtual machines}, preserve=false aResultDetail=0
17:36:54.061341 main     ERROR [COM]: aRC=VBOX_E_OBJECT_IN_USE (0x80bb000c) aIID={ad47ad09-787b-44ab-b343-a082a3f2dfb1} aComponent={MediumWrap} aText={Medium 'C:\Users\bapti\OneDrive\Bureau\new pc\VirtualBox VMs\Windows 2012 (64-bit) - Backup\Snapshots/{595a5e5f-572e-4f2c-83cc-88c4aae6eaa5}.vdi' cannot be closed because it is still attached to 1 virtual machines}, preserve=false aResultDetail=0
17:36:54.061570 main     ERROR [COM]: aRC=VBOX_E_OBJECT_IN_USE (0x80bb000c) aIID={ad47ad09-787b-44ab-b343-a082a3f2dfb1} aComponent={MediumWrap} aText={Medium 'C:\Users\bapti\OneDrive\Bureau\new pc\VirtualBox VMs\Windows 2012 (64-bit) - Backup\Windows 2012 (64-bit) - Backup.vdi' cannot be closed because it is still attached to 1 virtual machines}, preserve=false aResultDetail=0
17:36:54.064579 main     ERROR [COM]: aRC=VBOX_E_OBJECT_IN_USE (0x80bb000c) aIID={ad47ad09-787b-44ab-b343-a082a3f2dfb1} aComponent={MediumWrap} aText={Medium 'C:\Users\bapti\OneDrive\Bureau\new pc\VirtualBox VMs\Windows 2012 (64-bit) - VM2\Windows 2012 (64-bit) - Base1.vdi' cannot be closed because it is still attached to 1 virtual machines}, preserve=false aResultDetail=0
17:36:54.065177 main     ERROR [COM]: aRC=VBOX_E_OBJECT_IN_USE (0x80bb000c) aIID={ad47ad09-787b-44ab-b343-a082a3f2dfb1} aComponent={MediumWrap} aText={Medium 'C:\Users\bapti\OneDrive\Bureau\Virtualbox\VMnew\VMnew.vdi' cannot be closed because it is still attached to 1 virtual machines}, preserve=false aResultDetail=0
17:36:54.065751 main     ERROR [COM]: aRC=VBOX_E_OBJECT_IN_USE (0x80bb000c) aIID={ad47ad09-787b-44ab-b343-a082a3f2dfb1} aComponent={MediumWrap} aText={Medium 'C:\Users\bapti\OneDrive\Bureau\Virtualbox\VMclient\VMclient.vdi' cannot be closed because it is still attached to 1 virtual machines}, preserve=false aResultDetail=0
17:36:54.066305 main     ERROR [COM]: aRC=VBOX_E_OBJECT_IN_USE (0x80bb000c) aIID={ad47ad09-787b-44ab-b343-a082a3f2dfb1} aComponent={MediumWrap} aText={Medium 'C:\Users\bapti\OneDrive\Bureau\Virtualbox\Ubuntu\Ubuntu.vdi' cannot be closed because it is still attached to 1 virtual machines}, preserve=false aResultDetail=0
17:36:54.067013 main     ERROR [COM]: aRC=VBOX_E_OBJECT_IN_USE (0x80bb000c) aIID={ad47ad09-787b-44ab-b343-a082a3f2dfb1} aComponent={MediumWrap} aText={Medium 'C:\Users\bapti\OneDrive\Bureau\new pc\VirtualBox VMs\Debian\Debian.vdi' cannot be closed because it is still attached to 1 virtual machines}, preserve=false aResultDetail=0
17:36:54.067666 main     NetworkServiceRunning: killing VBoxNetDHCP.exe, pid 00002f48...
17:36:54.074853 main     HostDnsMonitor: shutting down ...
17:36:54.074967 main     HostDnsMonitor: shut down
17:36:54.081025 Watcher  ERROR [COM]: aRC=E_ACCESSDENIED (0x80070005) aIID={d0a0163f-e254-4e5b-a1f2-011cf991c38d} aComponent={VirtualBoxWrap} aText={The object is not ready}, preserve=false aResultDetail=0
17:36:54.081655 main     VirtualBox: object deleted
