00:00:00.006109 main     VirtualBox COM Server 6.1.12 r139181 win.amd64 (Jul 10 2020 22:02:01) release log
00:00:00.006112 main     Log opened 2022-10-17T12:23:30.602076100Z
00:00:00.006113 main     Build Type: release
00:00:00.006120 main     OS Product: Windows 10
00:00:00.006121 main     OS Release: 10.0.22000
00:00:00.006122 main     OS Service Pack: 
00:00:00.044325 main     DMI Product Name: Inspiron 5515
00:00:00.063714 main     DMI Product Version: 1.11.1
00:00:00.063743 main     Firmware type: UEFI
00:00:00.064289 main     Secure Boot: VERR_PRIVILEGE_NOT_HELD
00:00:00.064326 main     Host RAM: 15720MB (15.3GB) total, 7388MB (7.2GB) available
00:00:00.064333 main     Executable: C:\Program Files\Oracle\VirtualBox\VBoxSVC.exe
00:00:00.064334 main     Process ID: 7896
00:00:00.064335 main     Package type: WINDOWS_64BITS_GENERIC
00:00:00.187830          VirtualBox: object creation starts
00:00:00.189632          Home directory: 'C:\Users\bapti\.VirtualBox'
00:00:00.190075          Installed Drivers:
00:00:00.201574            C:\Windows\system32\DRIVERS\VBoxNetLwf.sys (Version: 6.1.12.39181)
00:00:00.204315            C:\Windows\system32\DRIVERS\VBoxUSBMon.sys (Version: 6.1.12.39181)
00:00:00.206098            C:\Windows\system32\DRIVERS\VBoxDrv.sys (Version: 6.1.12.39181)
00:00:00.208912            C:\Windows\system32\DRIVERS\VBoxNetAdp6.sys (Version: 6.1.12.39181)
00:00:00.233796          Loading settings file "C:\Users\bapti\.VirtualBox\VirtualBox.xml" with version "1.12-windows"
00:00:00.243091          usbLibGetDevices: Starting USB device enumeration
00:00:00.243490          Getting USB descriptor (id 0) failed (dwErr=31) on hub USB#ROOT_HUB30#5&f6577f2&0&0#{f18a0e88-c30c-11d0-8815-00a0c906bed8} port 1
00:00:00.243609          Getting USB descriptor (id 0) failed (dwErr=31) on hub USB#ROOT_HUB30#5&f6577f2&0&0#{f18a0e88-c30c-11d0-8815-00a0c906bed8} port 3
00:00:00.243678          Getting USB descriptor (id 0) failed (dwErr=31) on hub USB#ROOT_HUB30#5&f6577f2&0&0#{f18a0e88-c30c-11d0-8815-00a0c906bed8} port 4
00:00:00.247226          usbLibGetDevices: Found 3 USB devices, 0 captured
00:00:00.248802          USB: Unknown USB device detected (idVendor: 0x0c45, idProduct: 0x6725)
00:00:00.250060          USB: Unknown USB device detected (idVendor: 0x0cf3, idProduct: 0xe007)
00:00:00.250087          USB: Unknown USB device detected (idVendor: 0x27c6, idProduct: 0x639c)
00:00:00.415847          HostDnsMonitor: initializing
00:00:00.427653          HostDnsMonitor: updating information
00:00:00.428585          HostDnsMonitor: old information
00:00:00.428588            no server entries
00:00:00.428590            no domain set
00:00:00.428590            no search string entries
00:00:00.428592          HostDnsMonitor: new information
00:00:00.428592            server 1: 192.168.2.246
00:00:00.428594            server 2: 192.168.2.249
00:00:00.428595            domain: eff-etudiant.fr
00:00:00.428595            no search string entries
00:00:00.507824          VD: VDInit finished with VINF_SUCCESS
00:00:00.524349          Loading settings file "C:\Users\bapti\OneDrive\Bureau\new pc\VirtualBox VMs\Windows 2012 (64-bit) - Backup\Windows 2012 (64-bit) - Backup.vbox" with version "1.15-windows"
00:00:00.540235          Loading settings file "C:\Users\bapti\OneDrive\Bureau\new pc\VirtualBox VMs\Windows 2012 (64-bit) - VM2\Windows 2012 (64-bit) - VM2.vbox" with version "1.15-windows"
00:00:00.551781          Loading settings file "C:\Users\bapti\OneDrive\Bureau\Virtualbox\VMnew\VMnew.vbox" with version "1.15-windows"
00:00:00.563955          Loading settings file "C:\Users\bapti\OneDrive\Bureau\Virtualbox\VMclient\VMclient.vbox" with version "1.15-windows"
00:00:00.575072          Loading settings file "C:\Users\bapti\OneDrive\Bureau\Virtualbox\Ubuntu\Ubuntu.vbox" with version "1.16-windows"
00:00:00.586221          Loading settings file "C:\Users\bapti\OneDrive\Bureau\new pc\VirtualBox VMs\Debian\Debian.vbox" with version "1.16-windows"
00:00:00.588704          VirtualBox: object created
00:00:03.803029          Saving settings file "C:\Users\bapti\.VirtualBox\VirtualBox.xml" with version "1.12-windows"
00:00:03.824251          Saving settings file "C:\Users\bapti\.VirtualBox\VirtualBox.xml" with version "1.12-windows"
00:00:44.160204          Import settings with version "1.19-windows"
00:00:44.184862          ERROR [COM]: aRC=E_FAIL (0x80004005) aIID={86a98347-7619-41aa-aece-b21ac5c1a7e6} aComponent={ApplianceWrap} aText={Error in  (line 148) -- Invalid value 'WAS' in AudioAdapter/@driver attribute.
00:00:44.185202          F:\tinderbox\win-6.1\out\win.amd64\release\obj\VBoxAPIWrap\ApplianceWrap.cpp[407] (long __cdecl ApplianceWrap::Interpret(void))}, preserve=false aResultDetail=0
00:00:54.378334          Import settings with version "1.19-windows"
00:00:54.378562          ERROR [COM]: aRC=E_FAIL (0x80004005) aIID={86a98347-7619-41aa-aece-b21ac5c1a7e6} aComponent={ApplianceWrap} aText={Error in  (line 148) -- Invalid value 'WAS' in AudioAdapter/@driver attribute.
00:00:54.378574          F:\tinderbox\win-6.1\out\win.amd64\release\obj\VBoxAPIWrap\ApplianceWrap.cpp[407] (long __cdecl ApplianceWrap::Interpret(void))}, preserve=false aResultDetail=0
00:01:31.914637          Import settings with version "1.19-windows"
00:01:31.914879          ERROR [COM]: aRC=E_FAIL (0x80004005) aIID={86a98347-7619-41aa-aece-b21ac5c1a7e6} aComponent={ApplianceWrap} aText={Error in  (line 148) -- Invalid value 'WAS' in AudioAdapter/@driver attribute.
00:01:31.914898          F:\tinderbox\win-6.1\out\win.amd64\release\obj\VBoxAPIWrap\ApplianceWrap.cpp[407] (long __cdecl ApplianceWrap::Interpret(void))}, preserve=false aResultDetail=0
00:01:57.030582          Import settings with version "1.19-windows"
00:01:57.030802          ERROR [COM]: aRC=E_FAIL (0x80004005) aIID={86a98347-7619-41aa-aece-b21ac5c1a7e6} aComponent={ApplianceWrap} aText={Error in  (line 148) -- Invalid value 'WAS' in AudioAdapter/@driver attribute.
00:01:57.030813          F:\tinderbox\win-6.1\out\win.amd64\release\obj\VBoxAPIWrap\ApplianceWrap.cpp[407] (long __cdecl ApplianceWrap::Interpret(void))}, preserve=false aResultDetail=0
00:02:28.503887          Import settings with version "1.19-windows"
00:02:28.504104          ERROR [COM]: aRC=E_FAIL (0x80004005) aIID={86a98347-7619-41aa-aece-b21ac5c1a7e6} aComponent={ApplianceWrap} aText={Error in  (line 148) -- Invalid value 'WAS' in AudioAdapter/@driver attribute.
00:02:28.504116          F:\tinderbox\win-6.1\out\win.amd64\release\obj\VBoxAPIWrap\ApplianceWrap.cpp[407] (long __cdecl ApplianceWrap::Interpret(void))}, preserve=false aResultDetail=0
00:03:17.552444          Import settings with version "1.19-windows"
00:03:17.552662          ERROR [COM]: aRC=E_FAIL (0x80004005) aIID={86a98347-7619-41aa-aece-b21ac5c1a7e6} aComponent={ApplianceWrap} aText={Error in  (line 148) -- Invalid value 'WAS' in AudioAdapter/@driver attribute.
00:03:17.552673          F:\tinderbox\win-6.1\out\win.amd64\release\obj\VBoxAPIWrap\ApplianceWrap.cpp[407] (long __cdecl ApplianceWrap::Interpret(void))}, preserve=false aResultDetail=0
00:03:46.319079          Import settings with version "1.19-windows"
00:03:46.319297          ERROR [COM]: aRC=E_FAIL (0x80004005) aIID={86a98347-7619-41aa-aece-b21ac5c1a7e6} aComponent={ApplianceWrap} aText={Error in  (line 148) -- Invalid value 'WAS' in AudioAdapter/@driver attribute.
00:03:46.319308          F:\tinderbox\win-6.1\out\win.amd64\release\obj\VBoxAPIWrap\ApplianceWrap.cpp[407] (long __cdecl ApplianceWrap::Interpret(void))}, preserve=false aResultDetail=0
00:04:30.316410          Saving settings file "C:\Users\bapti\.VirtualBox\VirtualBox.xml" with version "1.12-windows"
00:04:30.379072          Saving settings file "C:\Users\bapti\.VirtualBox\VirtualBox.xml" with version "1.12-windows"
00:04:30.386387          Saving settings file "C:\Users\bapti\.VirtualBox\VirtualBox.xml" with version "1.12-windows"
00:04:36.459190 main     VirtualBox: object deletion starts
00:04:36.477655 main     ERROR [COM]: aRC=VBOX_E_OBJECT_IN_USE (0x80bb000c) aIID={ad47ad09-787b-44ab-b343-a082a3f2dfb1} aComponent={MediumWrap} aText={Medium 'C:\Users\bapti\OneDrive\Bureau\new pc\VirtualBox VMs\Windows 2012 (64-bit) - Backup\Snapshots/{717abd98-db29-4d6b-9797-8a103de32bac}.vdi' cannot be closed because it is still attached to 1 virtual machines}, preserve=false aResultDetail=0
00:04:36.478608 main     ERROR [COM]: aRC=VBOX_E_OBJECT_IN_USE (0x80bb000c) aIID={ad47ad09-787b-44ab-b343-a082a3f2dfb1} aComponent={MediumWrap} aText={Medium 'C:\Users\bapti\OneDrive\Bureau\new pc\VirtualBox VMs\Windows 2012 (64-bit) - Backup\Snapshots/{595a5e5f-572e-4f2c-83cc-88c4aae6eaa5}.vdi' cannot be closed because it is still attached to 1 virtual machines}, preserve=false aResultDetail=0
00:04:36.478790 main     ERROR [COM]: aRC=VBOX_E_OBJECT_IN_USE (0x80bb000c) aIID={ad47ad09-787b-44ab-b343-a082a3f2dfb1} aComponent={MediumWrap} aText={Medium 'C:\Users\bapti\OneDrive\Bureau\new pc\VirtualBox VMs\Windows 2012 (64-bit) - Backup\Windows 2012 (64-bit) - Backup.vdi' cannot be closed because it is still attached to 1 virtual machines}, preserve=false aResultDetail=0
00:04:36.480092 main     ERROR [COM]: aRC=VBOX_E_OBJECT_IN_USE (0x80bb000c) aIID={ad47ad09-787b-44ab-b343-a082a3f2dfb1} aComponent={MediumWrap} aText={Medium 'C:\Users\bapti\OneDrive\Bureau\new pc\VirtualBox VMs\Windows 2012 (64-bit) - VM2\Windows 2012 (64-bit) - Base1.vdi' cannot be closed because it is still attached to 1 virtual machines}, preserve=false aResultDetail=0
00:04:36.480418 main     ERROR [COM]: aRC=VBOX_E_OBJECT_IN_USE (0x80bb000c) aIID={ad47ad09-787b-44ab-b343-a082a3f2dfb1} aComponent={MediumWrap} aText={Medium 'C:\Users\bapti\OneDrive\Bureau\Virtualbox\VMnew\VMnew.vdi' cannot be closed because it is still attached to 1 virtual machines}, preserve=false aResultDetail=0
00:04:36.480740 main     ERROR [COM]: aRC=VBOX_E_OBJECT_IN_USE (0x80bb000c) aIID={ad47ad09-787b-44ab-b343-a082a3f2dfb1} aComponent={MediumWrap} aText={Medium 'C:\Users\bapti\OneDrive\Bureau\Virtualbox\VMclient\VMclient.vdi' cannot be closed because it is still attached to 1 virtual machines}, preserve=false aResultDetail=0
00:04:36.481117 main     ERROR [COM]: aRC=VBOX_E_OBJECT_IN_USE (0x80bb000c) aIID={ad47ad09-787b-44ab-b343-a082a3f2dfb1} aComponent={MediumWrap} aText={Medium 'C:\Users\bapti\OneDrive\Bureau\Virtualbox\Ubuntu\Ubuntu.vdi' cannot be closed because it is still attached to 1 virtual machines}, preserve=false aResultDetail=0
00:04:36.481437 main     ERROR [COM]: aRC=VBOX_E_OBJECT_IN_USE (0x80bb000c) aIID={ad47ad09-787b-44ab-b343-a082a3f2dfb1} aComponent={MediumWrap} aText={Medium 'C:\Users\bapti\OneDrive\Bureau\new pc\VirtualBox VMs\Debian\Debian.vdi' cannot be closed because it is still attached to 1 virtual machines}, preserve=false aResultDetail=0
00:04:36.481457 main     ERROR [COM]: aRC=VBOX_E_OBJECT_IN_USE (0x80bb000c) aIID={ad47ad09-787b-44ab-b343-a082a3f2dfb1} aComponent={MediumWrap} aText={Medium 'C:\Users\bapti\OneDrive\Bureau\new pc\VirtualBox VMs\Debian\Debian_1.vdi' cannot be closed because it is still attached to 1 virtual machines}, preserve=false aResultDetail=0
00:04:36.483257 main     HostDnsMonitor: shutting down ...
00:04:36.483350 main     HostDnsMonitor: shut down
00:04:36.485815 Watcher  ERROR [COM]: aRC=E_ACCESSDENIED (0x80070005) aIID={d0a0163f-e254-4e5b-a1f2-011cf991c38d} aComponent={VirtualBoxWrap} aText={The object is not ready}, preserve=false aResultDetail=0
00:04:36.486221 main     VirtualBox: object deleted
