00:00:00.005196 main     VirtualBox COM Server 6.1.12 r139181 win.amd64 (Jul 10 2020 22:02:01) release log
00:00:00.005198 main     Log opened 2022-10-10T14:32:23.768367300Z
00:00:00.005199 main     Build Type: release
00:00:00.005205 main     OS Product: Windows 10
00:00:00.005206 main     OS Release: 10.0.22000
00:00:00.005207 main     OS Service Pack: 
00:00:00.048458 main     DMI Product Name: Inspiron 5515
00:00:00.067626 main     DMI Product Version: 1.11.1
00:00:00.067647 main     Firmware type: UEFI
00:00:00.068063 main     Secure Boot: VERR_PRIVILEGE_NOT_HELD
00:00:00.068086 main     Host RAM: 15720MB (15.3GB) total, 6640MB (6.4GB) available
00:00:00.068091 main     Executable: C:\Program Files\Oracle\VirtualBox\VBoxSVC.exe
00:00:00.068092 main     Process ID: 33808
00:00:00.068093 main     Package type: WINDOWS_64BITS_GENERIC
00:00:00.178944          VirtualBox: object creation starts
00:00:00.179324          Home directory: 'C:\Users\bapti\.VirtualBox'
00:00:00.179516          Installed Drivers:
00:00:00.182939            C:\Windows\system32\DRIVERS\VBoxNetLwf.sys (Version: 6.1.12.39181)
00:00:00.183955            C:\Windows\system32\DRIVERS\VBoxUSBMon.sys (Version: 6.1.12.39181)
00:00:00.184693            C:\Windows\system32\DRIVERS\VBoxDrv.sys (Version: 6.1.12.39181)
00:00:00.185657            C:\Windows\system32\DRIVERS\VBoxNetAdp6.sys (Version: 6.1.12.39181)
00:00:00.189434          Loading settings file "C:\Users\bapti\.VirtualBox\VirtualBox.xml" with version "1.12-windows"
00:00:00.192580          usbLibGetDevices: Starting USB device enumeration
00:00:00.193138          Getting USB descriptor (id 0) failed (dwErr=31) on hub USB#ROOT_HUB30#5&f6577f2&0&0#{f18a0e88-c30c-11d0-8815-00a0c906bed8} port 1
00:00:00.193247          Getting USB descriptor (id 0) failed (dwErr=31) on hub USB#ROOT_HUB30#5&f6577f2&0&0#{f18a0e88-c30c-11d0-8815-00a0c906bed8} port 3
00:00:00.193320          Getting USB descriptor (id 0) failed (dwErr=31) on hub USB#ROOT_HUB30#5&f6577f2&0&0#{f18a0e88-c30c-11d0-8815-00a0c906bed8} port 4
00:00:00.196912          usbLibGetDevices: Found 3 USB devices, 0 captured
00:00:00.196987          USB: Unknown USB device detected (idVendor: 0x0c45, idProduct: 0x6725)
00:00:00.197042          USB: Unknown USB device detected (idVendor: 0x0cf3, idProduct: 0xe007)
00:00:00.197060          USB: Unknown USB device detected (idVendor: 0x27c6, idProduct: 0x639c)
00:00:00.335043          HostDnsMonitor: initializing
00:00:00.346550          HostDnsMonitor: updating information
00:00:00.346588          HostDnsMonitor: old information
00:00:00.346589            no server entries
00:00:00.346590            no domain set
00:00:00.346591            no search string entries
00:00:00.346592          HostDnsMonitor: new information
00:00:00.346592            server 1: 192.168.2.246
00:00:00.346593            server 2: 192.168.2.249
00:00:00.346594            domain: eff-etudiant.fr
00:00:00.346594            no search string entries
00:00:00.425150          VD: VDInit finished with VINF_SUCCESS
00:00:00.427043          Loading settings file "C:\Users\bapti\OneDrive\Bureau\new pc\VirtualBox VMs\Windows 2012 (64-bit) - Backup\Windows 2012 (64-bit) - Backup.vbox" with version "1.15-windows"
00:00:00.429023          Loading settings file "C:\Users\bapti\OneDrive\Bureau\new pc\VirtualBox VMs\Windows 2012 (64-bit) - VM2\Windows 2012 (64-bit) - VM2.vbox" with version "1.15-windows"
00:00:00.429922          Loading settings file "C:\Users\bapti\OneDrive\Bureau\Virtualbox\VMnew\VMnew.vbox" with version "1.15-windows"
00:00:00.431093          Loading settings file "C:\Users\bapti\OneDrive\Bureau\Virtualbox\VMclient\VMclient.vbox" with version "1.15-windows"
00:00:00.432143          Loading settings file "C:\Users\bapti\OneDrive\Bureau\Virtualbox\Ubuntu\Ubuntu.vbox" with version "1.16-windows"
00:00:00.432970          Loading settings file "C:\Users\bapti\OneDrive\Bureau\new pc\VirtualBox VMs\Debian\Debian.vbox" with version "1.16-windows"
00:00:00.433945          VirtualBox: object created
00:04:06.694395          Launched VM: 68549728 pid: 30544 (0x7750) frontend: GUI/Qt name: Debian
00:04:11.437667          ERROR [COM]: aRC=VBOX_E_OBJECT_NOT_FOUND (0x80bb0001) aIID={70401eef-c8e9-466b-9660-45cb3e9979e4} aComponent={ExtPackManagerWrap} aText={No extension pack by the name 'Oracle VM VirtualBox Extension Pack' was found}, preserve=false aResultDetail=0
00:04:11.643958          ERROR [COM]: aRC=VBOX_E_IPRT_ERROR (0x80bb0005) aIID={85632c68-b5bb-4316-a900-5eb28d3413df} aComponent={SessionMachine} aText={Saved screenshot data is not available (VERR_NOT_SUPPORTED)}, preserve=false aResultDetail=-37
00:04:12.344215          NetworkServiceRunning: started 'VBoxNetDHCP.exe', pid 00006574
00:08:11.341920 dns-monitor HostDnsMonitor: updating information
00:08:11.341966 dns-monitor HostDnsMonitor: unchanged
00:38:31.713638 dns-monitor HostDnsMonitor: updating information
00:38:31.713759 dns-monitor HostDnsMonitor: unchanged
01:08:52.090418 dns-monitor HostDnsMonitor: updating information
01:08:52.105294 dns-monitor HostDnsMonitor: unchanged
01:21:30.517792 dns-monitor HostDnsMonitor: updating information
01:21:30.517842 dns-monitor HostDnsMonitor: unchanged
01:51:43.923208 dns-monitor HostDnsMonitor: updating information
01:51:43.923307 dns-monitor HostDnsMonitor: unchanged
01:56:20.865475 dns-monitor HostDnsMonitor: updating information
01:56:20.865606 dns-monitor HostDnsMonitor: old information
01:56:20.865627 dns-monitor   server 1: 192.168.2.246
01:56:20.865636 dns-monitor   server 2: 192.168.2.249
01:56:20.865644 dns-monitor   domain: eff-etudiant.fr
01:56:20.865652 dns-monitor   no search string entries
01:56:20.865660 dns-monitor HostDnsMonitor: new information
01:56:20.865667 dns-monitor   no server entries
01:56:20.865674 dns-monitor   no domain set
01:56:20.865681 dns-monitor   no search string entries
01:56:24.467206 dns-monitor HostDnsMonitor: updating information
01:56:24.467239 dns-monitor HostDnsMonitor: old information
01:56:24.467246 dns-monitor   no server entries
01:56:24.467253 dns-monitor   no domain set
01:56:24.467258 dns-monitor   no search string entries
01:56:24.467267 dns-monitor HostDnsMonitor: new information
01:56:24.467273 dns-monitor   server 1: 192.168.2.246
01:56:24.467279 dns-monitor   server 2: 192.168.2.249
01:56:24.467285 dns-monitor   domain: eff-etudiant.fr
01:56:24.467291 dns-monitor   no search string entries
01:56:36.445564 dns-monitor HostDnsMonitor: updating information
01:56:36.445616 dns-monitor HostDnsMonitor: unchanged
02:18:27.112297 dns-monitor HostDnsMonitor: updating information
02:18:27.112446 dns-monitor HostDnsMonitor: old information
02:18:27.112459 dns-monitor   server 1: 192.168.2.246
02:18:27.112467 dns-monitor   server 2: 192.168.2.249
02:18:27.112477 dns-monitor   domain: eff-etudiant.fr
02:18:27.112484 dns-monitor   no search string entries
02:18:27.112491 dns-monitor HostDnsMonitor: new information
02:18:27.112498 dns-monitor   no server entries
02:18:27.112505 dns-monitor   no domain set
02:18:27.112511 dns-monitor   no search string entries
08:38:58.591943 USBPROXY usbLibGetDevices: Starting USB device enumeration
08:38:58.614035 USBPROXY Getting USB descriptor (id 0) failed (dwErr=31) on hub USB#ROOT_HUB30#5&f6577f2&0&0#{f18a0e88-c30c-11d0-8815-00a0c906bed8} port 3
08:38:58.624869 USBPROXY usbLibGetDevices: Found 3 USB devices, 0 captured
08:38:59.087416 dns-monitor HostDnsMonitor: updating information
08:38:59.087586 dns-monitor HostDnsMonitor: unchanged
08:39:03.291199 dns-monitor HostDnsMonitor: updating information
08:39:03.291236 dns-monitor HostDnsMonitor: unchanged
08:39:05.389486 dns-monitor HostDnsMonitor: updating information
08:39:05.389590 dns-monitor HostDnsMonitor: old information
08:39:05.389595 dns-monitor   no server entries
08:39:05.389599 dns-monitor   no domain set
08:39:05.389603 dns-monitor   no search string entries
08:39:05.389607 dns-monitor HostDnsMonitor: new information
08:39:05.389610 dns-monitor   server 1: 192.168.1.254
08:39:05.389614 dns-monitor   no domain set
08:39:05.389681 dns-monitor   no search string entries
08:39:51.459630 dns-monitor HostDnsMonitor: updating information
08:39:51.459670 dns-monitor HostDnsMonitor: unchanged
08:40:47.741284 USBPROXY usbLibGetDevices: Starting USB device enumeration
08:40:47.741603 USBPROXY Getting USB descriptor (id 0) failed (dwErr=31) on hub USB#ROOT_HUB30#5&f6577f2&0&0#{f18a0e88-c30c-11d0-8815-00a0c906bed8} port 1
08:40:47.741709 USBPROXY Getting USB descriptor (id 0) failed (dwErr=31) on hub USB#ROOT_HUB30#5&f6577f2&0&0#{f18a0e88-c30c-11d0-8815-00a0c906bed8} port 3
08:40:47.748867 USBPROXY usbLibGetDevices: Found 3 USB devices, 0 captured
08:46:26.974523 USBPROXY usbLibGetDevices: Starting USB device enumeration
08:46:26.974780 USBPROXY Getting USB descriptor (id 0) failed (dwErr=31) on hub USB#ROOT_HUB30#5&f6577f2&0&0#{f18a0e88-c30c-11d0-8815-00a0c906bed8} port 1
08:46:26.974852 USBPROXY Getting USB descriptor (id 0) failed (dwErr=31) on hub USB#ROOT_HUB30#5&f6577f2&0&0#{f18a0e88-c30c-11d0-8815-00a0c906bed8} port 3
08:46:26.974899 USBPROXY Getting USB descriptor (id 0) failed (dwErr=31) on hub USB#ROOT_HUB30#5&f6577f2&0&0#{f18a0e88-c30c-11d0-8815-00a0c906bed8} port 4
08:46:26.975017 USBPROXY usbLibGetDevices: Found 3 USB devices, 0 captured
08:46:26.975051 USBPROXY USB: Unknown USB device detected (idVendor: 0x27c6, idProduct: 0x639c)
09:09:03.386178 USBPROXY usbLibGetDevices: Starting USB device enumeration
09:09:03.386524 USBPROXY Getting USB descriptor (id 0) failed (dwErr=31) on hub USB#ROOT_HUB30#5&f6577f2&0&0#{f18a0e88-c30c-11d0-8815-00a0c906bed8} port 1
09:09:03.386612 USBPROXY Getting USB descriptor (id 0) failed (dwErr=31) on hub USB#ROOT_HUB30#5&f6577f2&0&0#{f18a0e88-c30c-11d0-8815-00a0c906bed8} port 3
09:09:03.386674 USBPROXY Getting USB descriptor (id 0) failed (dwErr=31) on hub USB#ROOT_HUB30#5&f6577f2&0&0#{f18a0e88-c30c-11d0-8815-00a0c906bed8} port 4
09:09:03.386839 USBPROXY usbLibGetDevices: Found 3 USB devices, 0 captured
09:09:04.617357 USBPROXY usbLibGetDevices: Starting USB device enumeration
09:09:04.617618 USBPROXY Getting USB descriptor (id 0) failed (dwErr=31) on hub USB#ROOT_HUB30#5&f6577f2&0&0#{f18a0e88-c30c-11d0-8815-00a0c906bed8} port 1
09:09:04.617680 USBPROXY Getting USB descriptor (id 0) failed (dwErr=31) on hub USB#ROOT_HUB30#5&f6577f2&0&0#{f18a0e88-c30c-11d0-8815-00a0c906bed8} port 3
09:09:04.617735 USBPROXY Getting USB descriptor (id 0) failed (dwErr=31) on hub USB#ROOT_HUB30#5&f6577f2&0&0#{f18a0e88-c30c-11d0-8815-00a0c906bed8} port 4
09:09:04.617845 USBPROXY usbLibGetDevices: Found 3 USB devices, 0 captured
10:46:12.914211          Saving settings file "C:\Users\bapti\.VirtualBox\VirtualBox.xml" with version "1.12-windows"
10:46:12.921057          Saving settings file "C:\Users\bapti\.VirtualBox\VirtualBox.xml" with version "1.12-windows"
15:43:29.697580 dns-monitor HostDnsMonitor: updating information
15:43:29.697735 dns-monitor HostDnsMonitor: old information
15:43:29.697746 dns-monitor   server 1: 192.168.1.254
15:43:29.697753 dns-monitor   no domain set
15:43:29.697759 dns-monitor   no search string entries
15:43:29.697765 dns-monitor HostDnsMonitor: new information
15:43:29.697771 dns-monitor   no server entries
15:43:29.697777 dns-monitor   no domain set
15:43:29.697783 dns-monitor   no search string entries
15:43:33.155204 dns-monitor HostDnsMonitor: updating information
15:43:33.155256 dns-monitor HostDnsMonitor: old information
15:43:33.155266 dns-monitor   no server entries
15:43:33.155275 dns-monitor   no domain set
15:43:33.155282 dns-monitor   no search string entries
15:43:33.155290 dns-monitor HostDnsMonitor: new information
15:43:33.155297 dns-monitor   server 1: 192.168.2.246
15:43:33.155305 dns-monitor   server 2: 192.168.2.249
15:43:33.155313 dns-monitor   domain: eff-etudiant.fr
15:43:33.155321 dns-monitor   no search string entries
16:13:53.578042 dns-monitor HostDnsMonitor: updating information
16:13:53.578229 dns-monitor HostDnsMonitor: unchanged
16:44:13.346140 dns-monitor HostDnsMonitor: updating information
16:44:13.346259 dns-monitor HostDnsMonitor: unchanged
17:00:45.332424          Saving settings file "C:\Users\bapti\OneDrive\Bureau\new pc\VirtualBox VMs\Debian\Debian.vbox" with version "1.16-windows"
17:00:52.364309 main     VirtualBox: object deletion starts
17:00:52.426571 main     ERROR [COM]: aRC=VBOX_E_OBJECT_IN_USE (0x80bb000c) aIID={ad47ad09-787b-44ab-b343-a082a3f2dfb1} aComponent={MediumWrap} aText={Medium 'C:\Users\bapti\OneDrive\Bureau\new pc\VirtualBox VMs\Windows 2012 (64-bit) - Backup\Snapshots/{717abd98-db29-4d6b-9797-8a103de32bac}.vdi' cannot be closed because it is still attached to 1 virtual machines}, preserve=false aResultDetail=0
17:00:52.431356 main     ERROR [COM]: aRC=VBOX_E_OBJECT_IN_USE (0x80bb000c) aIID={ad47ad09-787b-44ab-b343-a082a3f2dfb1} aComponent={MediumWrap} aText={Medium 'C:\Users\bapti\OneDrive\Bureau\new pc\VirtualBox VMs\Windows 2012 (64-bit) - Backup\Snapshots/{595a5e5f-572e-4f2c-83cc-88c4aae6eaa5}.vdi' cannot be closed because it is still attached to 1 virtual machines}, preserve=false aResultDetail=0
17:00:52.431667 main     ERROR [COM]: aRC=VBOX_E_OBJECT_IN_USE (0x80bb000c) aIID={ad47ad09-787b-44ab-b343-a082a3f2dfb1} aComponent={MediumWrap} aText={Medium 'C:\Users\bapti\OneDrive\Bureau\new pc\VirtualBox VMs\Windows 2012 (64-bit) - Backup\Windows 2012 (64-bit) - Backup.vdi' cannot be closed because it is still attached to 1 virtual machines}, preserve=false aResultDetail=0
17:00:52.450932 main     ERROR [COM]: aRC=VBOX_E_OBJECT_IN_USE (0x80bb000c) aIID={ad47ad09-787b-44ab-b343-a082a3f2dfb1} aComponent={MediumWrap} aText={Medium 'C:\Users\bapti\OneDrive\Bureau\new pc\VirtualBox VMs\Windows 2012 (64-bit) - VM2\Windows 2012 (64-bit) - Base1.vdi' cannot be closed because it is still attached to 1 virtual machines}, preserve=false aResultDetail=0
17:00:52.451504 main     ERROR [COM]: aRC=VBOX_E_OBJECT_IN_USE (0x80bb000c) aIID={ad47ad09-787b-44ab-b343-a082a3f2dfb1} aComponent={MediumWrap} aText={Medium 'C:\Users\bapti\OneDrive\Bureau\Virtualbox\VMnew\VMnew.vdi' cannot be closed because it is still attached to 1 virtual machines}, preserve=false aResultDetail=0
17:00:52.451997 main     ERROR [COM]: aRC=VBOX_E_OBJECT_IN_USE (0x80bb000c) aIID={ad47ad09-787b-44ab-b343-a082a3f2dfb1} aComponent={MediumWrap} aText={Medium 'C:\Users\bapti\OneDrive\Bureau\Virtualbox\VMclient\VMclient.vdi' cannot be closed because it is still attached to 1 virtual machines}, preserve=false aResultDetail=0
17:00:52.452399 main     ERROR [COM]: aRC=VBOX_E_OBJECT_IN_USE (0x80bb000c) aIID={ad47ad09-787b-44ab-b343-a082a3f2dfb1} aComponent={MediumWrap} aText={Medium 'C:\Users\bapti\OneDrive\Bureau\Virtualbox\Ubuntu\Ubuntu.vdi' cannot be closed because it is still attached to 1 virtual machines}, preserve=false aResultDetail=0
17:00:52.453346 main     ERROR [COM]: aRC=VBOX_E_OBJECT_IN_USE (0x80bb000c) aIID={ad47ad09-787b-44ab-b343-a082a3f2dfb1} aComponent={MediumWrap} aText={Medium 'C:\Users\bapti\OneDrive\Bureau\new pc\VirtualBox VMs\Debian\Debian.vdi' cannot be closed because it is still attached to 1 virtual machines}, preserve=false aResultDetail=0
17:00:52.453429 main     ERROR [COM]: aRC=VBOX_E_OBJECT_IN_USE (0x80bb000c) aIID={ad47ad09-787b-44ab-b343-a082a3f2dfb1} aComponent={MediumWrap} aText={Medium 'C:\Users\bapti\OneDrive\Bureau\new pc\VirtualBox VMs\Debian\Debian_1.vdi' cannot be closed because it is still attached to 1 virtual machines}, preserve=false aResultDetail=0
17:00:52.454043 main     NetworkServiceRunning: killing VBoxNetDHCP.exe, pid 00006574...
17:00:52.459948 main     HostDnsMonitor: shutting down ...
17:00:52.460066 main     HostDnsMonitor: shut down
17:00:52.464297 Watcher  ERROR [COM]: aRC=E_ACCESSDENIED (0x80070005) aIID={d0a0163f-e254-4e5b-a1f2-011cf991c38d} aComponent={VirtualBoxWrap} aText={The object is not ready}, preserve=false aResultDetail=0
17:00:52.465588 main     VirtualBox: object deleted
