00:00:00.004075 main     VirtualBox COM Server 6.1.12 r139181 win.amd64 (Jul 10 2020 22:02:01) release log
00:00:00.004077 main     Log opened 2022-09-26T12:04:19.241239500Z
00:00:00.004078 main     Build Type: release
00:00:00.004081 main     OS Product: Windows 10
00:00:00.004082 main     OS Release: 10.0.22000
00:00:00.004082 main     OS Service Pack: 
00:00:00.042323 main     DMI Product Name: Inspiron 5515
00:00:00.059035 main     DMI Product Version: 1.11.1
00:00:00.059050 main     Firmware type: UEFI
00:00:00.059445 main     Secure Boot: VERR_PRIVILEGE_NOT_HELD
00:00:00.059463 main     Host RAM: 15720MB (15.3GB) total, 6936MB (6.7GB) available
00:00:00.059467 main     Executable: C:\Program Files\Oracle\VirtualBox\VBoxSVC.exe
00:00:00.059468 main     Process ID: 29588
00:00:00.059468 main     Package type: WINDOWS_64BITS_GENERIC
00:00:00.171052          VirtualBox: object creation starts
00:00:00.171318          Home directory: 'C:\Users\bapti\.VirtualBox'
00:00:00.171440          Installed Drivers:
00:00:00.175044            C:\Windows\system32\DRIVERS\VBoxNetLwf.sys (Version: 6.1.12.39181)
00:00:00.176704            C:\Windows\system32\DRIVERS\VBoxUSBMon.sys (Version: 6.1.12.39181)
00:00:00.177588            C:\Windows\system32\DRIVERS\VBoxDrv.sys (Version: 6.1.12.39181)
00:00:00.179304            C:\Windows\system32\DRIVERS\VBoxNetAdp6.sys (Version: 6.1.12.39181)
00:00:00.194673          Loading settings file "C:\Users\bapti\.VirtualBox\VirtualBox.xml" with version "1.12-windows"
00:00:00.197384          usbLibGetDevices: Starting USB device enumeration
00:00:00.197624          Getting USB descriptor (id 0) failed (dwErr=31) on hub USB#ROOT_HUB30#5&f6577f2&0&0#{f18a0e88-c30c-11d0-8815-00a0c906bed8} port 1
00:00:00.197686          Getting USB descriptor (id 0) failed (dwErr=31) on hub USB#ROOT_HUB30#5&f6577f2&0&0#{f18a0e88-c30c-11d0-8815-00a0c906bed8} port 3
00:00:00.197729          Getting USB descriptor (id 0) failed (dwErr=31) on hub USB#ROOT_HUB30#5&f6577f2&0&0#{f18a0e88-c30c-11d0-8815-00a0c906bed8} port 4
00:00:00.200358          usbLibGetDevices: Found 3 USB devices, 0 captured
00:00:00.200406          USB: Unknown USB device detected (idVendor: 0x0c45, idProduct: 0x6725)
00:00:00.200446          USB: Unknown USB device detected (idVendor: 0x0cf3, idProduct: 0xe007)
00:00:00.200457          USB: Unknown USB device detected (idVendor: 0x27c6, idProduct: 0x639c)
00:00:00.244065          HostDnsMonitor: initializing
00:00:00.253747          HostDnsMonitor: updating information
00:00:00.253773          HostDnsMonitor: old information
00:00:00.253773            no server entries
00:00:00.253774            no domain set
00:00:00.253774            no search string entries
00:00:00.253775          HostDnsMonitor: new information
00:00:00.253775            server 1: 192.168.2.246
00:00:00.253776            server 2: 192.168.2.249
00:00:00.253777            domain: eff-etudiant.fr
00:00:00.253777            no search string entries
00:00:00.314009          VD: VDInit finished with VINF_SUCCESS
00:00:00.324296          Loading settings file "C:\Users\bapti\OneDrive\Bureau\new pc\VirtualBox VMs\Windows 2012 (64-bit) - Backup\Windows 2012 (64-bit) - Backup.vbox" with version "1.15-windows"
00:00:00.333645          Loading settings file "C:\Users\bapti\OneDrive\Bureau\new pc\VirtualBox VMs\Windows 2012 (64-bit) - VM2\Windows 2012 (64-bit) - VM2.vbox" with version "1.15-windows"
00:00:00.341523          Loading settings file "C:\Users\bapti\OneDrive\Bureau\Virtualbox\VMnew\VMnew.vbox" with version "1.15-windows"
00:00:00.350203          Loading settings file "C:\Users\bapti\OneDrive\Bureau\Virtualbox\VMclient\VMclient.vbox" with version "1.15-windows"
00:00:00.360851          Loading settings file "C:\Users\bapti\OneDrive\Bureau\Virtualbox\Ubuntu\Ubuntu.vbox" with version "1.16-windows"
00:00:00.369080          Loading settings file "C:\Users\bapti\OneDrive\Bureau\new pc\VirtualBox VMs\Debian\Debian.vbox" with version "1.16-windows"
00:00:00.370895          VirtualBox: object created
00:00:03.958952          Saving settings file "C:\Users\bapti\.VirtualBox\VirtualBox.xml" with version "1.12-windows"
00:00:03.983417          Saving settings file "C:\Users\bapti\.VirtualBox\VirtualBox.xml" with version "1.12-windows"
00:00:05.436658          Launched VM: 69362992 pid: 33900 (0x846c) frontend: GUI/Qt name: Debian
00:00:11.972541          ERROR [COM]: aRC=VBOX_E_OBJECT_NOT_FOUND (0x80bb0001) aIID={70401eef-c8e9-466b-9660-45cb3e9979e4} aComponent={ExtPackManagerWrap} aText={No extension pack by the name 'Oracle VM VirtualBox Extension Pack' was found}, preserve=false aResultDetail=0
00:01:38.478647          ERROR [COM]: aRC=VBOX_E_IPRT_ERROR (0x80bb0005) aIID={85632c68-b5bb-4316-a900-5eb28d3413df} aComponent={SessionMachine} aText={Saved screenshot data is not available (VERR_NOT_SUPPORTED)}, preserve=false aResultDetail=-37
00:01:39.359008          NetworkServiceRunning: started 'VBoxNetDHCP.exe', pid 00006134
00:29:43.046385 USBPROXY usbLibGetDevices: Starting USB device enumeration
00:29:43.047114 USBPROXY Getting USB descriptor (id 0) failed (dwErr=31) on hub USB#ROOT_HUB30#5&f6577f2&0&0#{f18a0e88-c30c-11d0-8815-00a0c906bed8} port 1
00:29:43.047301 USBPROXY Getting USB descriptor (id 0) failed (dwErr=31) on hub USB#ROOT_HUB30#5&f6577f2&0&0#{f18a0e88-c30c-11d0-8815-00a0c906bed8} port 3
00:29:43.047422 USBPROXY Getting USB descriptor (id 0) failed (dwErr=31) on hub USB#ROOT_HUB30#5&f6577f2&0&0#{f18a0e88-c30c-11d0-8815-00a0c906bed8} port 4
00:29:43.047699 USBPROXY usbLibGetDevices: Found 3 USB devices, 0 captured
00:29:48.625446 dns-monitor HostDnsMonitor: updating information
00:29:48.625491 dns-monitor HostDnsMonitor: unchanged
00:30:23.920692          Saving settings file "C:\Users\bapti\OneDrive\Bureau\new pc\VirtualBox VMs\Debian\Debian.vbox" with version "1.16-windows"
00:30:24.570578          Saving settings file "C:\Users\bapti\OneDrive\Bureau\new pc\VirtualBox VMs\Debian\Debian.vbox" with version "1.16-windows"
00:30:24.606561          Saving settings file "C:\Users\bapti\OneDrive\Bureau\new pc\VirtualBox VMs\Debian\Debian.vbox" with version "1.16-windows"
00:30:26.324417          Launched VM: 69377264 pid: 25824 (0x64e0) frontend: GUI/Qt name: Debian
00:30:30.992226          ERROR [COM]: aRC=VBOX_E_OBJECT_NOT_FOUND (0x80bb0001) aIID={70401eef-c8e9-466b-9660-45cb3e9979e4} aComponent={ExtPackManagerWrap} aText={No extension pack by the name 'Oracle VM VirtualBox Extension Pack' was found}, preserve=false aResultDetail=0
00:30:31.172134          ERROR [COM]: aRC=VBOX_E_IPRT_ERROR (0x80bb0005) aIID={85632c68-b5bb-4316-a900-5eb28d3413df} aComponent={SessionMachine} aText={Saved screenshot data is not available (VERR_NOT_SUPPORTED)}, preserve=false aResultDetail=-37
00:30:31.963838          ERROR [COM]: aRC=VBOX_E_OBJECT_IN_USE (0x80bb000c) aIID={cadef0a2-a1a9-4ac2-8e80-c049af69dac8} aComponent={DHCPServerWrap} aText={Cannot start DHCP server because it is already running (pid 00006134)}, preserve=false aResultDetail=-51
00:33:20.446873          Saving settings file "C:\Users\bapti\OneDrive\Bureau\new pc\VirtualBox VMs\Debian\Debian.vbox" with version "1.16-windows"
00:33:24.590640          Launched VM: 44230768 pid: 5228 (0x146c) frontend: GUI/Qt name: Debian
00:33:29.314690          ERROR [COM]: aRC=VBOX_E_OBJECT_NOT_FOUND (0x80bb0001) aIID={70401eef-c8e9-466b-9660-45cb3e9979e4} aComponent={ExtPackManagerWrap} aText={No extension pack by the name 'Oracle VM VirtualBox Extension Pack' was found}, preserve=false aResultDetail=0
00:33:29.505154          ERROR [COM]: aRC=VBOX_E_IPRT_ERROR (0x80bb0005) aIID={85632c68-b5bb-4316-a900-5eb28d3413df} aComponent={SessionMachine} aText={Saved screenshot data is not available (VERR_NOT_SUPPORTED)}, preserve=false aResultDetail=-37
00:33:30.276199          ERROR [COM]: aRC=VBOX_E_OBJECT_IN_USE (0x80bb000c) aIID={cadef0a2-a1a9-4ac2-8e80-c049af69dac8} aComponent={DHCPServerWrap} aText={Cannot start DHCP server because it is already running (pid 00006134)}, preserve=false aResultDetail=-51
01:00:09.511694 dns-monitor HostDnsMonitor: updating information
01:00:09.511806 dns-monitor HostDnsMonitor: unchanged
01:30:30.405636 dns-monitor HostDnsMonitor: updating information
01:30:30.405754 dns-monitor HostDnsMonitor: unchanged
01:52:19.211621 USBPROXY usbLibGetDevices: Starting USB device enumeration
01:52:19.212219 USBPROXY Getting USB descriptor (id 0) failed (dwErr=31) on hub USB#ROOT_HUB30#5&f6577f2&0&0#{f18a0e88-c30c-11d0-8815-00a0c906bed8} port 1
01:52:19.212371 USBPROXY Getting USB descriptor (id 0) failed (dwErr=31) on hub USB#ROOT_HUB30#5&f6577f2&0&0#{f18a0e88-c30c-11d0-8815-00a0c906bed8} port 3
01:52:19.212466 USBPROXY Getting USB descriptor (id 0) failed (dwErr=31) on hub USB#ROOT_HUB30#5&f6577f2&0&0#{f18a0e88-c30c-11d0-8815-00a0c906bed8} port 4
01:52:19.212673 USBPROXY usbLibGetDevices: Found 3 USB devices, 0 captured
02:00:51.292443 dns-monitor HostDnsMonitor: updating information
02:00:51.292564 dns-monitor HostDnsMonitor: unchanged
02:31:11.666926 dns-monitor HostDnsMonitor: updating information
02:31:11.667040 dns-monitor HostDnsMonitor: unchanged
03:01:32.145339 dns-monitor HostDnsMonitor: updating information
03:01:32.145492 dns-monitor HostDnsMonitor: unchanged
03:31:55.083214 dns-monitor HostDnsMonitor: updating information
03:31:55.083308 dns-monitor HostDnsMonitor: unchanged
03:35:03.382694 USBPROXY usbLibGetDevices: Starting USB device enumeration
03:35:03.383333 USBPROXY Getting USB descriptor (id 0) failed (dwErr=31) on hub USB#ROOT_HUB30#5&f6577f2&0&0#{f18a0e88-c30c-11d0-8815-00a0c906bed8} port 1
03:35:03.383474 USBPROXY Getting USB descriptor (id 0) failed (dwErr=31) on hub USB#ROOT_HUB30#5&f6577f2&0&0#{f18a0e88-c30c-11d0-8815-00a0c906bed8} port 3
03:35:03.383560 USBPROXY Getting USB descriptor (id 0) failed (dwErr=31) on hub USB#ROOT_HUB30#5&f6577f2&0&0#{f18a0e88-c30c-11d0-8815-00a0c906bed8} port 4
03:35:03.383750 USBPROXY usbLibGetDevices: Found 3 USB devices, 0 captured
03:50:57.657276 USBPROXY usbLibGetDevices: Starting USB device enumeration
03:50:57.657620 USBPROXY Getting USB descriptor (id 0) failed (dwErr=31) on hub USB#ROOT_HUB30#5&f6577f2&0&0#{f18a0e88-c30c-11d0-8815-00a0c906bed8} port 1
03:50:57.657711 USBPROXY Getting USB descriptor (id 0) failed (dwErr=31) on hub USB#ROOT_HUB30#5&f6577f2&0&0#{f18a0e88-c30c-11d0-8815-00a0c906bed8} port 3
03:50:57.657791 USBPROXY Getting USB descriptor (id 0) failed (dwErr=31) on hub USB#ROOT_HUB30#5&f6577f2&0&0#{f18a0e88-c30c-11d0-8815-00a0c906bed8} port 4
03:50:57.657982 USBPROXY usbLibGetDevices: Found 3 USB devices, 0 captured
04:00:57.099961          Saving settings file "C:\Users\bapti\OneDrive\Bureau\new pc\VirtualBox VMs\Debian\Debian.vbox" with version "1.16-windows"
04:00:57.693105          Saving settings file "C:\Users\bapti\OneDrive\Bureau\new pc\VirtualBox VMs\Debian\Debian.vbox" with version "1.16-windows"
04:02:13.612569 dns-monitor HostDnsMonitor: updating information
04:02:13.612608 dns-monitor HostDnsMonitor: unchanged
04:03:23.478471          Saving settings file "C:\Users\bapti\.VirtualBox\VirtualBox.xml" with version "1.12-windows"
04:03:23.487597          Saving settings file "C:\Users\bapti\.VirtualBox\VirtualBox.xml" with version "1.12-windows"
04:04:08.421892          Launched VM: 69203824 pid: 37828 (0x93c4) frontend: GUI/Qt name: Debian
04:04:12.676298          ERROR [COM]: aRC=VBOX_E_OBJECT_NOT_FOUND (0x80bb0001) aIID={70401eef-c8e9-466b-9660-45cb3e9979e4} aComponent={ExtPackManagerWrap} aText={No extension pack by the name 'Oracle VM VirtualBox Extension Pack' was found}, preserve=false aResultDetail=0
04:04:12.834240          ERROR [COM]: aRC=VBOX_E_IPRT_ERROR (0x80bb0005) aIID={85632c68-b5bb-4316-a900-5eb28d3413df} aComponent={SessionMachine} aText={Saved screenshot data is not available (VERR_NOT_SUPPORTED)}, preserve=false aResultDetail=-37
04:04:13.341857          ERROR [COM]: aRC=VBOX_E_OBJECT_IN_USE (0x80bb000c) aIID={cadef0a2-a1a9-4ac2-8e80-c049af69dac8} aComponent={DHCPServerWrap} aText={Cannot start DHCP server because it is already running (pid 00006134)}, preserve=false aResultDetail=-51
04:08:25.890580 USBPROXY usbLibGetDevices: Starting USB device enumeration
04:08:25.890995 USBPROXY Getting USB descriptor (id 0) failed (dwErr=31) on hub USB#ROOT_HUB30#5&f6577f2&0&0#{f18a0e88-c30c-11d0-8815-00a0c906bed8} port 1
04:08:25.891110 USBPROXY Getting USB descriptor (id 0) failed (dwErr=31) on hub USB#ROOT_HUB30#5&f6577f2&0&0#{f18a0e88-c30c-11d0-8815-00a0c906bed8} port 3
04:08:25.898410 USBPROXY usbLibGetDevices: Found 3 USB devices, 0 captured
04:10:11.313704          Saving settings file "C:\Users\bapti\OneDrive\Bureau\new pc\VirtualBox VMs\Debian\Debian.vbox" with version "1.16-windows"
04:10:11.866998          Saving settings file "C:\Users\bapti\OneDrive\Bureau\new pc\VirtualBox VMs\Debian\Debian.vbox" with version "1.16-windows"
04:10:48.718414 USBPROXY usbLibGetDevices: Starting USB device enumeration
04:10:48.718851 USBPROXY Getting USB descriptor (id 0) failed (dwErr=31) on hub USB#ROOT_HUB30#5&f6577f2&0&0#{f18a0e88-c30c-11d0-8815-00a0c906bed8} port 1
04:10:48.718979 USBPROXY Getting USB descriptor (id 0) failed (dwErr=31) on hub USB#ROOT_HUB30#5&f6577f2&0&0#{f18a0e88-c30c-11d0-8815-00a0c906bed8} port 3
04:10:48.719088 USBPROXY Getting USB descriptor (id 0) failed (dwErr=31) on hub USB#ROOT_HUB30#5&f6577f2&0&0#{f18a0e88-c30c-11d0-8815-00a0c906bed8} port 4
04:10:48.719353 USBPROXY usbLibGetDevices: Found 3 USB devices, 0 captured
04:10:48.719421 USBPROXY USB: Unknown USB device detected (idVendor: 0x27c6, idProduct: 0x639c)
04:11:04.004754 createBase Saving settings file "C:\Users\bapti\.VirtualBox\VirtualBox.xml" with version "1.12-windows"
04:11:18.733904          Saving settings file "C:\Users\bapti\.VirtualBox\VirtualBox.xml" with version "1.12-windows"
04:11:21.392560          ERROR [COM]: aRC=VBOX_E_OBJECT_NOT_FOUND (0x80bb0001) aIID={85632c68-b5bb-4316-a900-5eb28d3413df} aComponent={SessionMachine} aText={No storage device attached to device slot 0 on port 1 of controller 'SATA'}, preserve=false aResultDetail=0
04:11:21.393833          Saving settings file "C:\Users\bapti\.VirtualBox\VirtualBox.xml" with version "1.12-windows"
04:11:21.416694          Saving settings file "C:\Users\bapti\OneDrive\Bureau\new pc\VirtualBox VMs\Debian\Debian.vbox" with version "1.16-windows"
04:11:22.475629          Launched VM: 69498352 pid: 30116 (0x75a4) frontend: GUI/Qt name: Debian
04:11:25.639410          ERROR [COM]: aRC=VBOX_E_OBJECT_NOT_FOUND (0x80bb0001) aIID={70401eef-c8e9-466b-9660-45cb3e9979e4} aComponent={ExtPackManagerWrap} aText={No extension pack by the name 'Oracle VM VirtualBox Extension Pack' was found}, preserve=false aResultDetail=0
04:11:25.765505          ERROR [COM]: aRC=VBOX_E_IPRT_ERROR (0x80bb0005) aIID={85632c68-b5bb-4316-a900-5eb28d3413df} aComponent={SessionMachine} aText={Saved screenshot data is not available (VERR_NOT_SUPPORTED)}, preserve=false aResultDetail=-37
04:11:26.251978          ERROR [COM]: aRC=VBOX_E_OBJECT_IN_USE (0x80bb000c) aIID={cadef0a2-a1a9-4ac2-8e80-c049af69dac8} aComponent={DHCPServerWrap} aText={Cannot start DHCP server because it is already running (pid 00006134)}, preserve=false aResultDetail=-51
04:32:33.989289 dns-monitor HostDnsMonitor: updating information
04:32:33.989391 dns-monitor HostDnsMonitor: unchanged
15:07:04.956664 dns-monitor HostDnsMonitor: updating information
15:07:04.956843 dns-monitor HostDnsMonitor: old information
15:07:04.956864 dns-monitor   server 1: 192.168.2.246
15:07:04.956884 dns-monitor   server 2: 192.168.2.249
15:07:04.956896 dns-monitor   domain: eff-etudiant.fr
15:07:04.956904 dns-monitor   no search string entries
15:07:04.956917 dns-monitor HostDnsMonitor: new information
15:07:04.956925 dns-monitor   no server entries
15:07:04.956932 dns-monitor   no domain set
15:07:04.956940 dns-monitor   no search string entries
15:07:07.091299 dns-monitor HostDnsMonitor: updating information
15:07:07.091344 dns-monitor HostDnsMonitor: old information
15:07:07.091351 dns-monitor   no server entries
15:07:07.091357 dns-monitor   no domain set
15:07:07.091362 dns-monitor   no search string entries
15:07:07.091368 dns-monitor HostDnsMonitor: new information
15:07:07.091439 dns-monitor   server 1: 192.168.1.254
15:07:07.091449 dns-monitor   no domain set
15:07:07.091454 dns-monitor   no search string entries
