00:00:00.007322 main     VirtualBox COM Server 6.1.12 r139181 win.amd64 (Jul 10 2020 22:02:01) release log
00:00:00.007324 main     Log opened 2022-09-19T09:24:24.570116800Z
00:00:00.007325 main     Build Type: release
00:00:00.007330 main     OS Product: Windows 10
00:00:00.007331 main     OS Release: 10.0.22000
00:00:00.007332 main     OS Service Pack: 
00:00:00.046844 main     DMI Product Name: Inspiron 5515
00:00:00.064314 main     DMI Product Version: 1.11.1
00:00:00.064338 main     Firmware type: UEFI
00:00:00.064759 main     Secure Boot: VERR_PRIVILEGE_NOT_HELD
00:00:00.064782 main     Host RAM: 15720MB (15.3GB) total, 8392MB (8.1GB) available
00:00:00.064787 main     Executable: C:\Program Files\Oracle\VirtualBox\VBoxSVC.exe
00:00:00.064788 main     Process ID: 6236
00:00:00.064788 main     Package type: WINDOWS_64BITS_GENERIC
00:00:00.174296          VirtualBox: object creation starts
00:00:00.175852          Home directory: 'C:\Users\bapti\.VirtualBox'
00:00:00.176380          Installed Drivers:
00:00:00.184325            C:\Windows\system32\DRIVERS\VBoxNetLwf.sys (Version: 6.1.12.39181)
00:00:00.186674            C:\Windows\system32\DRIVERS\VBoxUSBMon.sys (Version: 6.1.12.39181)
00:00:00.188351            C:\Windows\system32\DRIVERS\VBoxDrv.sys (Version: 6.1.12.39181)
00:00:00.191483            C:\Windows\system32\DRIVERS\VBoxNetAdp6.sys (Version: 6.1.12.39181)
00:00:00.224415          Loading settings file "C:\Users\bapti\.VirtualBox\VirtualBox.xml" with version "1.12-windows"
00:00:00.233666          usbLibGetDevices: Starting USB device enumeration
00:00:00.234161          Getting USB descriptor (id 0) failed (dwErr=31) on hub USB#ROOT_HUB30#5&f6577f2&0&0#{f18a0e88-c30c-11d0-8815-00a0c906bed8} port 1
00:00:00.234657          Getting USB descriptor (id 0) failed (dwErr=31) on hub USB#ROOT_HUB30#5&f6577f2&0&0#{f18a0e88-c30c-11d0-8815-00a0c906bed8} port 3
00:00:00.234731          Getting USB descriptor (id 0) failed (dwErr=31) on hub USB#ROOT_HUB30#5&f6577f2&0&0#{f18a0e88-c30c-11d0-8815-00a0c906bed8} port 4
00:00:00.238131          usbLibGetDevices: Found 3 USB devices, 0 captured
00:00:00.239654          USB: Unknown USB device detected (idVendor: 0x0c45, idProduct: 0x6725)
00:00:00.241096          USB: Unknown USB device detected (idVendor: 0x0cf3, idProduct: 0xe007)
00:00:00.241136          USB: Unknown USB device detected (idVendor: 0x27c6, idProduct: 0x639c)
00:00:00.402033          HostDnsMonitor: initializing
00:00:00.414884          HostDnsMonitor: updating information
00:00:00.415779          HostDnsMonitor: old information
00:00:00.415781            no server entries
00:00:00.415782            no domain set
00:00:00.415783            no search string entries
00:00:00.415784          HostDnsMonitor: new information
00:00:00.415784            server 1: 192.168.2.246
00:00:00.415785            server 2: 192.168.2.249
00:00:00.415786            domain: eff-etudiant.fr
00:00:00.415786            no search string entries
00:00:00.493718          VD: VDInit finished with VINF_SUCCESS
00:00:00.509777          Loading settings file "C:\Users\bapti\OneDrive\Bureau\new pc\VirtualBox VMs\Windows 2012 (64-bit) - Backup\Windows 2012 (64-bit) - Backup.vbox" with version "1.15-windows"
00:00:00.524901          Loading settings file "C:\Users\bapti\OneDrive\Bureau\new pc\VirtualBox VMs\Windows 2012 (64-bit) - VM2\Windows 2012 (64-bit) - VM2.vbox" with version "1.15-windows"
00:00:00.534886          Loading settings file "C:\Users\bapti\OneDrive\Bureau\Virtualbox\VMnew\VMnew.vbox" with version "1.15-windows"
00:00:00.544961          Loading settings file "C:\Users\bapti\OneDrive\Bureau\Virtualbox\VMclient\VMclient.vbox" with version "1.15-windows"
00:00:00.547053          VirtualBox: object created
00:00:06.333158          Saving settings file "C:\Users\bapti\.VirtualBox\VirtualBox.xml" with version "1.12-windows"
00:00:06.358566          Saving settings file "C:\Users\bapti\.VirtualBox\VirtualBox.xml" with version "1.12-windows"
00:07:32.315446 dns-monitor HostDnsMonitor: updating information
00:07:32.315624 dns-monitor HostDnsMonitor: unchanged
00:18:39.411316 USBPROXY usbLibGetDevices: Starting USB device enumeration
00:18:39.413207 USBPROXY Getting USB descriptor (id 0) failed (dwErr=31) on hub USB#ROOT_HUB30#5&f6577f2&0&0#{f18a0e88-c30c-11d0-8815-00a0c906bed8} port 1
00:18:39.413360 USBPROXY Getting USB descriptor (id 0) failed (dwErr=31) on hub USB#ROOT_HUB30#5&f6577f2&0&0#{f18a0e88-c30c-11d0-8815-00a0c906bed8} port 3
00:18:39.413469 USBPROXY Getting USB descriptor (id 0) failed (dwErr=31) on hub USB#ROOT_HUB30#5&f6577f2&0&0#{f18a0e88-c30c-11d0-8815-00a0c906bed8} port 4
00:18:39.413851 USBPROXY usbLibGetDevices: Found 4 USB devices, 0 captured
00:18:39.991390 USBPROXY usbLibGetDevices: Starting USB device enumeration
00:18:39.992412 USBPROXY Getting USB descriptor (id 0) failed (dwErr=31) on hub USB#ROOT_HUB30#5&f6577f2&0&0#{f18a0e88-c30c-11d0-8815-00a0c906bed8} port 1
00:18:39.992799 USBPROXY Getting USB descriptor (id 0) failed (dwErr=31) on hub USB#ROOT_HUB30#5&f6577f2&0&0#{f18a0e88-c30c-11d0-8815-00a0c906bed8} port 3
00:18:39.992934 USBPROXY Getting USB descriptor (id 0) failed (dwErr=31) on hub USB#ROOT_HUB30#5&f6577f2&0&0#{f18a0e88-c30c-11d0-8815-00a0c906bed8} port 4
00:18:39.993192 USBPROXY usbLibGetDevices: Found 4 USB devices, 0 captured
00:18:40.810769 USBPROXY usbLibGetDevices: Starting USB device enumeration
00:18:40.811807 USBPROXY Getting USB descriptor (id 0) failed (dwErr=31) on hub USB#ROOT_HUB30#5&f6577f2&0&0#{f18a0e88-c30c-11d0-8815-00a0c906bed8} port 1
00:18:40.811974 USBPROXY Getting USB descriptor (id 0) failed (dwErr=31) on hub USB#ROOT_HUB30#5&f6577f2&0&0#{f18a0e88-c30c-11d0-8815-00a0c906bed8} port 3
00:18:40.812082 USBPROXY Getting USB descriptor (id 0) failed (dwErr=31) on hub USB#ROOT_HUB30#5&f6577f2&0&0#{f18a0e88-c30c-11d0-8815-00a0c906bed8} port 4
00:18:40.812356 USBPROXY usbLibGetDevices: Found 4 USB devices, 0 captured
00:19:11.780242 USBPROXY usbLibGetDevices: Starting USB device enumeration
00:19:11.780536 USBPROXY Getting USB descriptor (id 0) failed (dwErr=31) on hub USB#ROOT_HUB30#5&32671a4f&0&0#{f18a0e88-c30c-11d0-8815-00a0c906bed8} port 6
00:19:11.780714 USBPROXY Getting USB descriptor (id 0) failed (dwErr=31) on hub USB#ROOT_HUB30#5&f6577f2&0&0#{f18a0e88-c30c-11d0-8815-00a0c906bed8} port 1
00:19:11.780808 USBPROXY Getting USB descriptor (id 0) failed (dwErr=31) on hub USB#ROOT_HUB30#5&f6577f2&0&0#{f18a0e88-c30c-11d0-8815-00a0c906bed8} port 3
00:19:11.780880 USBPROXY Getting USB descriptor (id 0) failed (dwErr=31) on hub USB#ROOT_HUB30#5&f6577f2&0&0#{f18a0e88-c30c-11d0-8815-00a0c906bed8} port 4
00:19:11.781077 USBPROXY usbLibGetDevices: Found 4 USB devices, 0 captured
00:19:14.044979 USBPROXY usbLibGetDevices: Starting USB device enumeration
00:19:14.045525 USBPROXY Getting USB descriptor (id 0) failed (dwErr=31) on hub USB#ROOT_HUB30#5&f6577f2&0&0#{f18a0e88-c30c-11d0-8815-00a0c906bed8} port 1
00:19:14.045670 USBPROXY Getting USB descriptor (id 0) failed (dwErr=31) on hub USB#ROOT_HUB30#5&f6577f2&0&0#{f18a0e88-c30c-11d0-8815-00a0c906bed8} port 3
00:19:14.045798 USBPROXY Getting USB descriptor (id 0) failed (dwErr=31) on hub USB#ROOT_HUB30#5&f6577f2&0&0#{f18a0e88-c30c-11d0-8815-00a0c906bed8} port 4
00:19:14.046048 USBPROXY usbLibGetDevices: Found 3 USB devices, 0 captured
00:20:59.885846 createBase Saving settings file "C:\Users\bapti\.VirtualBox\VirtualBox.xml" with version "1.12-windows"
00:21:00.443806          Saving settings file "C:\Users\bapti\OneDrive\Bureau\new pc\VirtualBox VMs\Ubuntu\Ubuntu.vbox" with version "1.16-windows"
00:21:00.451039          Saving settings file "C:\Users\bapti\OneDrive\Bureau\new pc\VirtualBox VMs\Ubuntu\Ubuntu.vbox" with version "1.16-windows"
00:21:00.458594          Saving settings file "C:\Users\bapti\.VirtualBox\VirtualBox.xml" with version "1.12-windows"
00:21:00.486465          Saving settings file "C:\Users\bapti\.VirtualBox\VirtualBox.xml" with version "1.12-windows"
00:21:00.499162          Saving settings file "C:\Users\bapti\OneDrive\Bureau\new pc\VirtualBox VMs\Ubuntu\Ubuntu.vbox" with version "1.16-windows"
00:21:04.434854          Launched VM: 63348768 pid: 16312 (0x3fb8) frontend: GUI/Qt name: Ubuntu
00:21:10.681967          ERROR [COM]: aRC=VBOX_E_OBJECT_NOT_FOUND (0x80bb0001) aIID={70401eef-c8e9-466b-9660-45cb3e9979e4} aComponent={ExtPackManagerWrap} aText={No extension pack by the name 'Oracle VM VirtualBox Extension Pack' was found}, preserve=false aResultDetail=0
00:21:10.885566          ERROR [COM]: aRC=VBOX_E_IPRT_ERROR (0x80bb0005) aIID={85632c68-b5bb-4316-a900-5eb28d3413df} aComponent={SessionMachine} aText={Saved screenshot data is not available (VERR_NOT_SUPPORTED)}, preserve=false aResultDetail=-37
00:21:27.152773          Saving settings file "C:\Users\bapti\.VirtualBox\VirtualBox.xml" with version "1.12-windows"
00:21:27.164678          Saving settings file "C:\Users\bapti\.VirtualBox\VirtualBox.xml" with version "1.12-windows"
00:21:32.390638          Saving settings file "C:\Users\bapti\.VirtualBox\VirtualBox.xml" with version "1.12-windows"
00:21:32.418372          Saving settings file "C:\Users\bapti\OneDrive\Bureau\new pc\VirtualBox VMs\Ubuntu\Ubuntu.vbox" with version "1.16-windows"
00:28:57.526415          Saving settings file "C:\Users\bapti\.VirtualBox\VirtualBox.xml" with version "1.12-windows"
00:28:57.534738          Saving settings file "C:\Users\bapti\.VirtualBox\VirtualBox.xml" with version "1.12-windows"
00:28:57.541065          Saving settings file "C:\Users\bapti\.VirtualBox\VirtualBox.xml" with version "1.12-windows"
00:28:58.891974          Saving settings file "C:\Users\bapti\.VirtualBox\VirtualBox.xml" with version "1.12-windows"
00:28:58.911104          Saving settings file "C:\Users\bapti\.VirtualBox\VirtualBox.xml" with version "1.12-windows"
00:38:14.190879 dns-monitor HostDnsMonitor: updating information
00:38:14.190926 dns-monitor HostDnsMonitor: unchanged
00:38:30.462477          Saving settings file "C:\Users\bapti\OneDrive\Bureau\new pc\VirtualBox VMs\Ubuntu\Ubuntu.vbox" with version "1.16-windows"
00:42:15.586234          Saving settings file "C:\Users\bapti\OneDrive\Bureau\new pc\VirtualBox VMs\Ubuntu\Ubuntu.vbox" with version "1.16-windows"
00:42:16.680069          Saving settings file "C:\Users\bapti\OneDrive\Bureau\new pc\VirtualBox VMs\Ubuntu\Ubuntu.vbox" with version "1.16-windows"
00:42:18.129328          Saving settings file "C:\Users\bapti\OneDrive\Bureau\new pc\VirtualBox VMs\Ubuntu\Ubuntu.vbox" with version "1.16-windows"
00:42:18.166422          Saving settings file "C:\Users\bapti\OneDrive\Bureau\new pc\VirtualBox VMs\Ubuntu\Ubuntu.vbox" with version "1.16-windows"
00:42:22.328213          Launched VM: 63415440 pid: 11708 (0x2dbc) frontend: GUI/Qt name: Ubuntu
00:42:27.057443          ERROR [COM]: aRC=VBOX_E_OBJECT_NOT_FOUND (0x80bb0001) aIID={70401eef-c8e9-466b-9660-45cb3e9979e4} aComponent={ExtPackManagerWrap} aText={No extension pack by the name 'Oracle VM VirtualBox Extension Pack' was found}, preserve=false aResultDetail=0
00:42:27.262201          ERROR [COM]: aRC=VBOX_E_IPRT_ERROR (0x80bb0005) aIID={85632c68-b5bb-4316-a900-5eb28d3413df} aComponent={SessionMachine} aText={Saved screenshot data is not available (VERR_NOT_SUPPORTED)}, preserve=false aResultDetail=-37
00:47:37.485852          Saving settings file "C:\Users\bapti\.VirtualBox\VirtualBox.xml" with version "1.12-windows"
00:48:22.611033          Saving settings file "C:\Users\bapti\OneDrive\Bureau\new pc\VirtualBox VMs\Ubuntu\Ubuntu.vbox" with version "1.16-windows"
00:48:23.360442          Saving settings file "C:\Users\bapti\OneDrive\Bureau\new pc\VirtualBox VMs\Ubuntu\Ubuntu.vbox" with version "1.16-windows"
00:48:58.886103          Launched VM: 63484432 pid: 28200 (0x6e28) frontend: GUI/Qt name: Ubuntu
00:49:03.803903          ERROR [COM]: aRC=VBOX_E_OBJECT_NOT_FOUND (0x80bb0001) aIID={70401eef-c8e9-466b-9660-45cb3e9979e4} aComponent={ExtPackManagerWrap} aText={No extension pack by the name 'Oracle VM VirtualBox Extension Pack' was found}, preserve=false aResultDetail=0
00:49:03.995429          ERROR [COM]: aRC=VBOX_E_IPRT_ERROR (0x80bb0005) aIID={85632c68-b5bb-4316-a900-5eb28d3413df} aComponent={SessionMachine} aText={Saved screenshot data is not available (VERR_NOT_SUPPORTED)}, preserve=false aResultDetail=-37
00:49:50.701888          Saving settings file "C:\Users\bapti\OneDrive\Bureau\new pc\VirtualBox VMs\Ubuntu\Ubuntu.vbox" with version "1.16-windows"
00:49:51.487055          Saving settings file "C:\Users\bapti\OneDrive\Bureau\new pc\VirtualBox VMs\Ubuntu\Ubuntu.vbox" with version "1.16-windows"
00:55:21.141091          Launched VM: 63297232 pid: 37744 (0x9370) frontend: GUI/Qt name: Ubuntu
00:55:25.848748          ERROR [COM]: aRC=VBOX_E_OBJECT_NOT_FOUND (0x80bb0001) aIID={70401eef-c8e9-466b-9660-45cb3e9979e4} aComponent={ExtPackManagerWrap} aText={No extension pack by the name 'Oracle VM VirtualBox Extension Pack' was found}, preserve=false aResultDetail=0
00:55:26.072088          ERROR [COM]: aRC=VBOX_E_IPRT_ERROR (0x80bb0005) aIID={85632c68-b5bb-4316-a900-5eb28d3413df} aComponent={SessionMachine} aText={Saved screenshot data is not available (VERR_NOT_SUPPORTED)}, preserve=false aResultDetail=-37
01:05:53.173659 USBPROXY usbLibGetDevices: Starting USB device enumeration
01:05:53.174274 USBPROXY Getting USB descriptor (id 0) failed (dwErr=31) on hub USB#ROOT_HUB30#5&f6577f2&0&0#{f18a0e88-c30c-11d0-8815-00a0c906bed8} port 1
01:05:53.174419 USBPROXY Getting USB descriptor (id 0) failed (dwErr=31) on hub USB#ROOT_HUB30#5&f6577f2&0&0#{f18a0e88-c30c-11d0-8815-00a0c906bed8} port 3
01:05:53.174536 USBPROXY Getting USB descriptor (id 0) failed (dwErr=31) on hub USB#ROOT_HUB30#5&f6577f2&0&0#{f18a0e88-c30c-11d0-8815-00a0c906bed8} port 4
01:05:53.174818 USBPROXY usbLibGetDevices: Found 3 USB devices, 0 captured
01:05:54.298895 USBPROXY usbLibGetDevices: Starting USB device enumeration
01:05:54.314868 USBPROXY Getting USB descriptor (id 0) failed (dwErr=31) on hub USB#ROOT_HUB30#5&f6577f2&0&0#{f18a0e88-c30c-11d0-8815-00a0c906bed8} port 1
01:05:54.315007 USBPROXY Getting USB descriptor (id 0) failed (dwErr=31) on hub USB#ROOT_HUB30#5&f6577f2&0&0#{f18a0e88-c30c-11d0-8815-00a0c906bed8} port 3
01:05:54.315139 USBPROXY Getting USB descriptor (id 0) failed (dwErr=31) on hub USB#ROOT_HUB30#5&f6577f2&0&0#{f18a0e88-c30c-11d0-8815-00a0c906bed8} port 4
01:05:54.315361 USBPROXY usbLibGetDevices: Found 4 USB devices, 0 captured
01:08:13.900786 dns-monitor HostDnsMonitor: updating information
01:08:13.900832 dns-monitor HostDnsMonitor: unchanged
01:10:59.156487          Saving settings file "C:\Users\bapti\OneDrive\Bureau\new pc\VirtualBox VMs\Ubuntu\Ubuntu.vbox" with version "1.16-windows"
01:10:59.928984          Saving settings file "C:\Users\bapti\OneDrive\Bureau\new pc\VirtualBox VMs\Ubuntu\Ubuntu.vbox" with version "1.16-windows"
01:11:16.587172          Saving settings file "C:\Users\bapti\.VirtualBox\VirtualBox.xml" with version "1.12-windows"
01:16:37.287171 createBase Saving settings file "C:\Users\bapti\.VirtualBox\VirtualBox.xml" with version "1.12-windows"
01:16:37.866719          Saving settings file "C:\Users\bapti\OneDrive\Bureau\Virtualbox\Ubuntu\Ubuntu.vbox" with version "1.16-windows"
01:16:37.872915          Saving settings file "C:\Users\bapti\OneDrive\Bureau\Virtualbox\Ubuntu\Ubuntu.vbox" with version "1.16-windows"
01:16:37.879531          Saving settings file "C:\Users\bapti\.VirtualBox\VirtualBox.xml" with version "1.12-windows"
01:16:37.891455          Saving settings file "C:\Users\bapti\.VirtualBox\VirtualBox.xml" with version "1.12-windows"
01:16:37.899105          Saving settings file "C:\Users\bapti\OneDrive\Bureau\Virtualbox\Ubuntu\Ubuntu.vbox" with version "1.16-windows"
01:16:39.963629          Launched VM: 63300432 pid: 41648 (0xa2b0) frontend: GUI/Qt name: Ubuntu
01:16:44.496403          ERROR [COM]: aRC=VBOX_E_OBJECT_NOT_FOUND (0x80bb0001) aIID={70401eef-c8e9-466b-9660-45cb3e9979e4} aComponent={ExtPackManagerWrap} aText={No extension pack by the name 'Oracle VM VirtualBox Extension Pack' was found}, preserve=false aResultDetail=0
01:16:44.675535          ERROR [COM]: aRC=VBOX_E_IPRT_ERROR (0x80bb0005) aIID={85632c68-b5bb-4316-a900-5eb28d3413df} aComponent={SessionMachine} aText={Saved screenshot data is not available (VERR_NOT_SUPPORTED)}, preserve=false aResultDetail=-37
01:16:49.705780          Saving settings file "C:\Users\bapti\OneDrive\Bureau\Virtualbox\Ubuntu\Ubuntu.vbox" with version "1.16-windows"
01:32:00.022770 USBPROXY usbLibGetDevices: Starting USB device enumeration
01:32:00.023229 USBPROXY Getting USB descriptor (id 0) failed (dwErr=31) on hub USB#ROOT_HUB30#5&f6577f2&0&0#{f18a0e88-c30c-11d0-8815-00a0c906bed8} port 1
01:32:00.023382 USBPROXY Getting USB descriptor (id 0) failed (dwErr=31) on hub USB#ROOT_HUB30#5&f6577f2&0&0#{f18a0e88-c30c-11d0-8815-00a0c906bed8} port 3
01:32:00.023504 USBPROXY Getting USB descriptor (id 0) failed (dwErr=31) on hub USB#ROOT_HUB30#5&f6577f2&0&0#{f18a0e88-c30c-11d0-8815-00a0c906bed8} port 4
01:32:00.023805 USBPROXY usbLibGetDevices: Found 3 USB devices, 0 captured
01:32:03.479429 USBPROXY usbLibGetDevices: Starting USB device enumeration
01:32:03.490293 USBPROXY Getting USB descriptor (id 0) failed (dwErr=31) on hub USB#ROOT_HUB30#5&f6577f2&0&0#{f18a0e88-c30c-11d0-8815-00a0c906bed8} port 1
01:32:03.490516 USBPROXY Getting USB descriptor (id 0) failed (dwErr=31) on hub USB#ROOT_HUB30#5&f6577f2&0&0#{f18a0e88-c30c-11d0-8815-00a0c906bed8} port 3
01:32:03.490729 USBPROXY Getting USB descriptor (id 0) failed (dwErr=31) on hub USB#ROOT_HUB30#5&f6577f2&0&0#{f18a0e88-c30c-11d0-8815-00a0c906bed8} port 4
01:32:03.490990 USBPROXY usbLibGetDevices: Found 4 USB devices, 0 captured
02:27:34.658578 dns-monitor HostDnsMonitor: updating information
02:27:34.658679 dns-monitor HostDnsMonitor: unchanged
02:27:47.603624 dns-monitor HostDnsMonitor: updating information
02:27:47.603687 dns-monitor HostDnsMonitor: unchanged
02:28:50.715509 dns-monitor HostDnsMonitor: updating information
02:28:50.715558 dns-monitor HostDnsMonitor: unchanged
02:29:22.822146 USBPROXY usbLibGetDevices: Starting USB device enumeration
02:29:22.822609 USBPROXY Getting USB descriptor (id 0) failed (dwErr=31) on hub USB#ROOT_HUB30#5&f6577f2&0&0#{f18a0e88-c30c-11d0-8815-00a0c906bed8} port 1
02:29:22.822746 USBPROXY Getting USB descriptor (id 0) failed (dwErr=31) on hub USB#ROOT_HUB30#5&f6577f2&0&0#{f18a0e88-c30c-11d0-8815-00a0c906bed8} port 3
02:29:22.822846 USBPROXY Getting USB descriptor (id 0) failed (dwErr=31) on hub USB#ROOT_HUB30#5&f6577f2&0&0#{f18a0e88-c30c-11d0-8815-00a0c906bed8} port 4
02:29:22.823005 USBPROXY usbLibGetDevices: Found 3 USB devices, 0 captured
02:29:37.833474          Saving settings file "C:\Users\bapti\OneDrive\Bureau\Virtualbox\Ubuntu\Ubuntu.vbox" with version "1.16-windows"
02:29:38.903822          Saving settings file "C:\Users\bapti\OneDrive\Bureau\Virtualbox\Ubuntu\Ubuntu.vbox" with version "1.16-windows"
02:29:40.152544          Saving settings file "C:\Users\bapti\OneDrive\Bureau\Virtualbox\Ubuntu\Ubuntu.vbox" with version "1.16-windows"
02:29:40.204027          Saving settings file "C:\Users\bapti\OneDrive\Bureau\Virtualbox\Ubuntu\Ubuntu.vbox" with version "1.16-windows"
02:59:18.894332 dns-monitor HostDnsMonitor: updating information
02:59:18.894503 dns-monitor HostDnsMonitor: unchanged
03:04:14.691271 createBase Saving settings file "C:\Users\bapti\.VirtualBox\VirtualBox.xml" with version "1.12-windows"
03:04:15.274387          Saving settings file "C:\Users\bapti\OneDrive\Bureau\new pc\VirtualBox VMs\Debian_\Debian_.vbox" with version "1.16-windows"
03:04:15.282645          Saving settings file "C:\Users\bapti\OneDrive\Bureau\new pc\VirtualBox VMs\Debian_\Debian_.vbox" with version "1.16-windows"
03:04:15.290146          Saving settings file "C:\Users\bapti\.VirtualBox\VirtualBox.xml" with version "1.12-windows"
03:04:15.303347          Saving settings file "C:\Users\bapti\.VirtualBox\VirtualBox.xml" with version "1.12-windows"
03:04:15.312641          Saving settings file "C:\Users\bapti\OneDrive\Bureau\new pc\VirtualBox VMs\Debian_\Debian_.vbox" with version "1.16-windows"
03:04:34.881715          Launched VM: 63313520 pid: 1508 (0x5e4) frontend: GUI/Qt name: Debian 
03:04:39.848925          ERROR [COM]: aRC=VBOX_E_OBJECT_NOT_FOUND (0x80bb0001) aIID={70401eef-c8e9-466b-9660-45cb3e9979e4} aComponent={ExtPackManagerWrap} aText={No extension pack by the name 'Oracle VM VirtualBox Extension Pack' was found}, preserve=false aResultDetail=0
03:04:40.069798          ERROR [COM]: aRC=VBOX_E_IPRT_ERROR (0x80bb0005) aIID={85632c68-b5bb-4316-a900-5eb28d3413df} aComponent={SessionMachine} aText={Saved screenshot data is not available (VERR_NOT_SUPPORTED)}, preserve=false aResultDetail=-37
03:04:47.663120          Saving settings file "C:\Users\bapti\.VirtualBox\VirtualBox.xml" with version "1.12-windows"
03:04:47.669480          Saving settings file "C:\Users\bapti\.VirtualBox\VirtualBox.xml" with version "1.12-windows"
03:04:51.899365          Saving settings file "C:\Users\bapti\.VirtualBox\VirtualBox.xml" with version "1.12-windows"
03:04:51.924633          Saving settings file "C:\Users\bapti\OneDrive\Bureau\new pc\VirtualBox VMs\Debian_\Debian_.vbox" with version "1.16-windows"
03:29:39.767353 dns-monitor HostDnsMonitor: updating information
03:29:39.767458 dns-monitor HostDnsMonitor: unchanged
04:00:02.287229 dns-monitor HostDnsMonitor: updating information
04:00:02.287335 dns-monitor HostDnsMonitor: unchanged
04:21:57.311283 USBPROXY usbLibGetDevices: Starting USB device enumeration
04:21:57.311851 USBPROXY Getting USB descriptor (id 0) failed (dwErr=31) on hub USB#ROOT_HUB30#5&f6577f2&0&0#{f18a0e88-c30c-11d0-8815-00a0c906bed8} port 1
04:21:57.312081 USBPROXY Getting USB descriptor (id 0) failed (dwErr=31) on hub USB#ROOT_HUB30#5&f6577f2&0&0#{f18a0e88-c30c-11d0-8815-00a0c906bed8} port 3
04:21:57.319903 USBPROXY usbLibGetDevices: Found 3 USB devices, 0 captured
04:23:06.788907 USBPROXY usbLibGetDevices: Starting USB device enumeration
04:23:06.789317 USBPROXY Getting USB descriptor (id 0) failed (dwErr=31) on hub USB#ROOT_HUB30#5&f6577f2&0&0#{f18a0e88-c30c-11d0-8815-00a0c906bed8} port 1
04:23:06.789459 USBPROXY Getting USB descriptor (id 0) failed (dwErr=31) on hub USB#ROOT_HUB30#5&f6577f2&0&0#{f18a0e88-c30c-11d0-8815-00a0c906bed8} port 3
04:23:06.789631 USBPROXY Getting USB descriptor (id 0) failed (dwErr=31) on hub USB#ROOT_HUB30#5&f6577f2&0&0#{f18a0e88-c30c-11d0-8815-00a0c906bed8} port 4
04:23:06.789880 USBPROXY usbLibGetDevices: Found 3 USB devices, 0 captured
04:23:06.789955 USBPROXY USB: Unknown USB device detected (idVendor: 0x27c6, idProduct: 0x639c)
04:30:24.397765 dns-monitor HostDnsMonitor: updating information
04:30:24.397872 dns-monitor HostDnsMonitor: unchanged
04:30:43.612463 USBPROXY usbLibGetDevices: Starting USB device enumeration
04:30:43.623323 USBPROXY Getting USB descriptor (id 0) failed (dwErr=31) on hub USB#ROOT_HUB30#5&f6577f2&0&0#{f18a0e88-c30c-11d0-8815-00a0c906bed8} port 1
04:30:43.623417 USBPROXY Getting USB descriptor (id 0) failed (dwErr=31) on hub USB#ROOT_HUB30#5&f6577f2&0&0#{f18a0e88-c30c-11d0-8815-00a0c906bed8} port 3
04:30:43.623483 USBPROXY Getting USB descriptor (id 0) failed (dwErr=31) on hub USB#ROOT_HUB30#5&f6577f2&0&0#{f18a0e88-c30c-11d0-8815-00a0c906bed8} port 4
04:30:43.623704 USBPROXY usbLibGetDevices: Found 4 USB devices, 0 captured
04:42:19.321242          Saving settings file "C:\Users\bapti\OneDrive\Bureau\new pc\VirtualBox VMs\Debian_\Debian_.vbox" with version "1.16-windows"
04:42:20.378769          Saving settings file "C:\Users\bapti\OneDrive\Bureau\new pc\VirtualBox VMs\Debian_\Debian_.vbox" with version "1.16-windows"
04:42:20.990391          Saving settings file "C:\Users\bapti\OneDrive\Bureau\new pc\VirtualBox VMs\Debian_\Debian_.vbox" with version "1.16-windows"
04:42:21.028350          Saving settings file "C:\Users\bapti\OneDrive\Bureau\new pc\VirtualBox VMs\Debian_\Debian_.vbox" with version "1.16-windows"
04:42:27.851296          Saving settings file "C:\Users\bapti\.VirtualBox\VirtualBox.xml" with version "1.12-windows"
04:43:04.510198 createBase Saving settings file "C:\Users\bapti\.VirtualBox\VirtualBox.xml" with version "1.12-windows"
04:43:05.040714          Saving settings file "C:\Users\bapti\OneDrive\Bureau\new pc\VirtualBox VMs\Debian\Debian.vbox" with version "1.16-windows"
04:43:05.045924          Saving settings file "C:\Users\bapti\OneDrive\Bureau\new pc\VirtualBox VMs\Debian\Debian.vbox" with version "1.16-windows"
04:43:05.050518          Saving settings file "C:\Users\bapti\.VirtualBox\VirtualBox.xml" with version "1.12-windows"
04:43:05.058771          Saving settings file "C:\Users\bapti\.VirtualBox\VirtualBox.xml" with version "1.12-windows"
04:43:05.063429          Saving settings file "C:\Users\bapti\OneDrive\Bureau\new pc\VirtualBox VMs\Debian\Debian.vbox" with version "1.16-windows"
04:43:17.358296          Launched VM: 66211392 pid: 13548 (0x34ec) frontend: GUI/Qt name: Debian
04:43:21.620053          ERROR [COM]: aRC=VBOX_E_OBJECT_NOT_FOUND (0x80bb0001) aIID={70401eef-c8e9-466b-9660-45cb3e9979e4} aComponent={ExtPackManagerWrap} aText={No extension pack by the name 'Oracle VM VirtualBox Extension Pack' was found}, preserve=false aResultDetail=0
04:43:21.731140          ERROR [COM]: aRC=VBOX_E_IPRT_ERROR (0x80bb0005) aIID={85632c68-b5bb-4316-a900-5eb28d3413df} aComponent={SessionMachine} aText={Saved screenshot data is not available (VERR_NOT_SUPPORTED)}, preserve=false aResultDetail=-37
04:43:24.463119          Saving settings file "C:\Users\bapti\OneDrive\Bureau\new pc\VirtualBox VMs\Debian\Debian.vbox" with version "1.16-windows"
