461:11:29.477283 dns-monitor Log continuation - Log started 2022-08-25T02:00:37.806831100Z
461:11:29.477491 dns-monitor HostDnsMonitor: old information
461:11:29.477522 dns-monitor   no server entries
461:11:29.477539 dns-monitor   no domain set
461:11:29.477554 dns-monitor   no search string entries
461:11:29.477569 dns-monitor HostDnsMonitor: new information
461:11:29.477585 dns-monitor   server 1: 192.168.1.254
461:11:29.477601 dns-monitor   no domain set
461:11:29.477617 dns-monitor   no search string entries
461:11:31.362740 USBPROXY usbLibGetDevices: Starting USB device enumeration
461:11:31.367243 USBPROXY Getting USB descriptor (id 0) failed (dwErr=31) on hub USB#ROOT_HUB30#5&f6577f2&0&0#{f18a0e88-c30c-11d0-8815-00a0c906bed8} port 3
461:11:31.375904 USBPROXY usbLibGetDevices: Found 3 USB devices, 0 captured
461:11:32.404099 dns-monitor HostDnsMonitor: updating information
461:11:32.404154 dns-monitor HostDnsMonitor: old information
461:11:32.404162 dns-monitor   server 1: 192.168.1.254
461:11:32.404170 dns-monitor   no domain set
461:11:32.404175 dns-monitor   no search string entries
461:11:32.404182 dns-monitor HostDnsMonitor: new information
461:11:32.404188 dns-monitor   no server entries
461:11:32.404193 dns-monitor   no domain set
461:11:32.404200 dns-monitor   no search string entries
461:11:36.492964 dns-monitor HostDnsMonitor: updating information
461:11:36.493007 dns-monitor HostDnsMonitor: unchanged
461:11:38.660973 dns-monitor HostDnsMonitor: updating information
461:11:38.661003 dns-monitor HostDnsMonitor: old information
461:11:38.661008 dns-monitor   no server entries
461:11:38.661013 dns-monitor   no domain set
461:11:38.661017 dns-monitor   no search string entries
461:11:38.661022 dns-monitor HostDnsMonitor: new information
461:11:38.661026 dns-monitor   server 1: 192.168.2.246
461:11:38.661030 dns-monitor   server 2: 192.168.2.249
461:11:38.661035 dns-monitor   domain: eff-etudiant.fr
461:11:38.661039 dns-monitor   no search string entries
461:58:33.707115 dns-monitor HostDnsMonitor: updating information
461:58:33.707179 dns-monitor HostDnsMonitor: unchanged
462:01:31.487166 dns-monitor HostDnsMonitor: updating information
462:01:31.487217 dns-monitor HostDnsMonitor: unchanged
464:27:41.681101 dns-monitor HostDnsMonitor: updating information
464:27:41.681146 dns-monitor HostDnsMonitor: unchanged
464:30:12.137408 USBPROXY usbLibGetDevices: Starting USB device enumeration
464:30:12.138013 USBPROXY Getting USB descriptor (id 0) failed (dwErr=31) on hub USB#ROOT_HUB30#5&f6577f2&0&0#{f18a0e88-c30c-11d0-8815-00a0c906bed8} port 1
464:30:12.138191 USBPROXY Getting USB descriptor (id 0) failed (dwErr=31) on hub USB#ROOT_HUB30#5&f6577f2&0&0#{f18a0e88-c30c-11d0-8815-00a0c906bed8} port 3
464:30:12.138317 USBPROXY Getting USB descriptor (id 0) failed (dwErr=31) on hub USB#ROOT_HUB30#5&f6577f2&0&0#{f18a0e88-c30c-11d0-8815-00a0c906bed8} port 4
464:30:12.138613 USBPROXY usbLibGetDevices: Found 3 USB devices, 0 captured
464:30:12.138708 USBPROXY USB: Unknown USB device detected (idVendor: 0x27c6, idProduct: 0x639c)
464:57:52.322124 dns-monitor HostDnsMonitor: updating information
464:57:52.322320 dns-monitor HostDnsMonitor: unchanged
465:23:29.549118 USBPROXY usbLibGetDevices: Starting USB device enumeration
465:23:29.549427 USBPROXY Getting USB descriptor (id 0) failed (dwErr=31) on hub USB#ROOT_HUB30#5&f6577f2&0&0#{f18a0e88-c30c-11d0-8815-00a0c906bed8} port 1
465:23:29.549499 USBPROXY Getting USB descriptor (id 0) failed (dwErr=31) on hub USB#ROOT_HUB30#5&f6577f2&0&0#{f18a0e88-c30c-11d0-8815-00a0c906bed8} port 3
465:23:29.549548 USBPROXY Getting USB descriptor (id 0) failed (dwErr=31) on hub USB#ROOT_HUB30#5&f6577f2&0&0#{f18a0e88-c30c-11d0-8815-00a0c906bed8} port 4
465:23:29.549681 USBPROXY usbLibGetDevices: Found 3 USB devices, 0 captured
465:28:14.333677 dns-monitor HostDnsMonitor: updating information
465:28:14.333733 dns-monitor HostDnsMonitor: unchanged
465:29:39.023320 USBPROXY usbLibGetDevices: Starting USB device enumeration
465:29:39.023775 USBPROXY Getting USB descriptor (id 0) failed (dwErr=31) on hub USB#ROOT_HUB30#5&f6577f2&0&0#{f18a0e88-c30c-11d0-8815-00a0c906bed8} port 1
465:29:39.025119 USBPROXY Getting USB descriptor (id 0) failed (dwErr=31) on hub USB#ROOT_HUB30#5&f6577f2&0&0#{f18a0e88-c30c-11d0-8815-00a0c906bed8} port 3
465:29:39.033291 USBPROXY usbLibGetDevices: Found 3 USB devices, 0 captured
465:31:11.184267 USBPROXY usbLibGetDevices: Starting USB device enumeration
465:31:11.185029 USBPROXY Getting USB descriptor (id 0) failed (dwErr=31) on hub USB#ROOT_HUB30#5&f6577f2&0&0#{f18a0e88-c30c-11d0-8815-00a0c906bed8} port 1
465:31:11.185143 USBPROXY Getting USB descriptor (id 0) failed (dwErr=31) on hub USB#ROOT_HUB30#5&f6577f2&0&0#{f18a0e88-c30c-11d0-8815-00a0c906bed8} port 3
465:31:11.185225 USBPROXY Getting USB descriptor (id 0) failed (dwErr=31) on hub USB#ROOT_HUB30#5&f6577f2&0&0#{f18a0e88-c30c-11d0-8815-00a0c906bed8} port 4
465:31:11.185407 USBPROXY usbLibGetDevices: Found 3 USB devices, 0 captured
465:31:11.185459 USBPROXY USB: Unknown USB device detected (idVendor: 0x27c6, idProduct: 0x639c)
465:39:00.093391 USBPROXY usbLibGetDevices: Starting USB device enumeration
465:39:00.097090 USBPROXY Getting USB descriptor (id 0) failed (dwErr=31) on hub USB#ROOT_HUB30#5&f6577f2&0&0#{f18a0e88-c30c-11d0-8815-00a0c906bed8} port 3
465:39:00.097182 USBPROXY Getting USB descriptor (id 0) failed (dwErr=31) on hub USB#ROOT_HUB30#5&f6577f2&0&0#{f18a0e88-c30c-11d0-8815-00a0c906bed8} port 4
465:39:00.097397 USBPROXY usbLibGetDevices: Found 3 USB devices, 0 captured
465:47:33.556050 USBPROXY usbLibGetDevices: Starting USB device enumeration
465:47:33.556550 USBPROXY Getting USB descriptor (id 0) failed (dwErr=31) on hub USB#ROOT_HUB30#5&f6577f2&0&0#{f18a0e88-c30c-11d0-8815-00a0c906bed8} port 1
465:47:33.557002 USBPROXY Getting USB descriptor (id 0) failed (dwErr=31) on hub USB#ROOT_HUB30#5&f6577f2&0&0#{f18a0e88-c30c-11d0-8815-00a0c906bed8} port 3
465:47:33.565253 USBPROXY usbLibGetDevices: Found 3 USB devices, 0 captured
465:56:53.035541 USBPROXY usbLibGetDevices: Starting USB device enumeration
465:56:53.036075 USBPROXY Getting USB descriptor (id 0) failed (dwErr=31) on hub USB#ROOT_HUB30#5&f6577f2&0&0#{f18a0e88-c30c-11d0-8815-00a0c906bed8} port 1
465:56:53.036196 USBPROXY Getting USB descriptor (id 0) failed (dwErr=31) on hub USB#ROOT_HUB30#5&f6577f2&0&0#{f18a0e88-c30c-11d0-8815-00a0c906bed8} port 3
465:56:53.036274 USBPROXY Getting USB descriptor (id 0) failed (dwErr=31) on hub USB#ROOT_HUB30#5&f6577f2&0&0#{f18a0e88-c30c-11d0-8815-00a0c906bed8} port 4
465:56:53.036456 USBPROXY usbLibGetDevices: Found 3 USB devices, 0 captured
465:56:53.036508 USBPROXY USB: Unknown USB device detected (idVendor: 0x27c6, idProduct: 0x639c)
466:00:20.682337 dns-monitor HostDnsMonitor: updating information
466:00:20.682384 dns-monitor HostDnsMonitor: unchanged
466:16:18.951657 USBPROXY usbLibGetDevices: Starting USB device enumeration
466:16:18.952455 USBPROXY Getting USB descriptor (id 0) failed (dwErr=31) on hub USB#ROOT_HUB30#5&f6577f2&0&0#{f18a0e88-c30c-11d0-8815-00a0c906bed8} port 1
466:16:18.952615 USBPROXY Getting USB descriptor (id 0) failed (dwErr=31) on hub USB#ROOT_HUB30#5&f6577f2&0&0#{f18a0e88-c30c-11d0-8815-00a0c906bed8} port 3
466:16:18.952708 USBPROXY Getting USB descriptor (id 0) failed (dwErr=31) on hub USB#ROOT_HUB30#5&f6577f2&0&0#{f18a0e88-c30c-11d0-8815-00a0c906bed8} port 4
466:16:18.953017 USBPROXY usbLibGetDevices: Found 3 USB devices, 0 captured
466:25:51.686526          Saving settings file "C:\Users\bapti\.VirtualBox\VirtualBox.xml" with version "1.12-windows"
466:25:51.700394          Saving settings file "C:\Users\bapti\.VirtualBox\VirtualBox.xml" with version "1.12-windows"
466:25:57.275593 main     VirtualBox: object deletion starts
466:25:57.276938 main     ERROR [COM]: aRC=VBOX_E_OBJECT_IN_USE (0x80bb000c) aIID={ad47ad09-787b-44ab-b343-a082a3f2dfb1} aComponent={MediumWrap} aText={Medium 'C:\Users\bapti\OneDrive\Bureau\new pc\VirtualBox VMs\Windows 2012 (64-bit) - Backup\Snapshots/{717abd98-db29-4d6b-9797-8a103de32bac}.vdi' cannot be closed because it is still attached to 1 virtual machines}, preserve=false aResultDetail=0
466:25:57.280730 main     ERROR [COM]: aRC=VBOX_E_OBJECT_IN_USE (0x80bb000c) aIID={ad47ad09-787b-44ab-b343-a082a3f2dfb1} aComponent={MediumWrap} aText={Medium 'C:\Users\bapti\OneDrive\Bureau\new pc\VirtualBox VMs\Windows 2012 (64-bit) - Backup\Snapshots/{595a5e5f-572e-4f2c-83cc-88c4aae6eaa5}.vdi' cannot be closed because it is still attached to 1 virtual machines}, preserve=false aResultDetail=0
466:25:57.280868 main     ERROR [COM]: aRC=VBOX_E_OBJECT_IN_USE (0x80bb000c) aIID={ad47ad09-787b-44ab-b343-a082a3f2dfb1} aComponent={MediumWrap} aText={Medium 'C:\Users\bapti\OneDrive\Bureau\new pc\VirtualBox VMs\Windows 2012 (64-bit) - Backup\Windows 2012 (64-bit) - Backup.vdi' cannot be closed because it is still attached to 1 virtual machines}, preserve=false aResultDetail=0
466:25:57.283534 main     ERROR [COM]: aRC=VBOX_E_OBJECT_IN_USE (0x80bb000c) aIID={ad47ad09-787b-44ab-b343-a082a3f2dfb1} aComponent={MediumWrap} aText={Medium 'C:\Users\bapti\OneDrive\Bureau\new pc\VirtualBox VMs\Windows 2012 (64-bit) - VM2\Windows 2012 (64-bit) - Base1.vdi' cannot be closed because it is still attached to 1 virtual machines}, preserve=false aResultDetail=0
466:25:57.283859 main     ERROR [COM]: aRC=VBOX_E_OBJECT_IN_USE (0x80bb000c) aIID={ad47ad09-787b-44ab-b343-a082a3f2dfb1} aComponent={MediumWrap} aText={Medium 'C:\Users\bapti\OneDrive\Bureau\Virtualbox\VMnew\VMnew.vdi' cannot be closed because it is still attached to 1 virtual machines}, preserve=false aResultDetail=0
466:25:57.284163 main     ERROR [COM]: aRC=VBOX_E_OBJECT_IN_USE (0x80bb000c) aIID={ad47ad09-787b-44ab-b343-a082a3f2dfb1} aComponent={MediumWrap} aText={Medium 'C:\Users\bapti\OneDrive\Bureau\Virtualbox\VMclient\VMclient.vdi' cannot be closed because it is still attached to 1 virtual machines}, preserve=false aResultDetail=0
466:25:57.286039 main     HostDnsMonitor: shutting down ...
466:25:57.286106 main     HostDnsMonitor: shut down
466:25:57.289583 Watcher  ERROR [COM]: aRC=E_ACCESSDENIED (0x80070005) aIID={d0a0163f-e254-4e5b-a1f2-011cf991c38d} aComponent={VirtualBoxWrap} aText={The object is not ready}, preserve=false aResultDetail=0
466:25:57.290285 main     VirtualBox: object deleted
