00:00:00.004985 main     VirtualBox COM Server 6.1.12 r139181 win.amd64 (Jul 10 2020 22:02:01) release log
00:00:00.004988 main     Log opened 2022-10-03T12:08:07.660914000Z
00:00:00.004988 main     Build Type: release
00:00:00.004994 main     OS Product: Windows 10
00:00:00.004995 main     OS Release: 10.0.22000
00:00:00.004996 main     OS Service Pack: 
00:00:00.045004 main     DMI Product Name: Inspiron 5515
00:00:00.065214 main     DMI Product Version: 1.11.1
00:00:00.065237 main     Firmware type: UEFI
00:00:00.065681 main     Secure Boot: VERR_PRIVILEGE_NOT_HELD
00:00:00.065705 main     Host RAM: 15720MB (15.3GB) total, 7773MB (7.5GB) available
00:00:00.065710 main     Executable: C:\Program Files\Oracle\VirtualBox\VBoxSVC.exe
00:00:00.065711 main     Process ID: 11324
00:00:00.065711 main     Package type: WINDOWS_64BITS_GENERIC
00:00:00.196291          VirtualBox: object creation starts
00:00:00.196666          Home directory: 'C:\Users\bapti\.VirtualBox'
00:00:00.196844          Installed Drivers:
00:00:00.207027            C:\Windows\system32\DRIVERS\VBoxNetLwf.sys (Version: 6.1.12.39181)
00:00:00.208364            C:\Windows\system32\DRIVERS\VBoxUSBMon.sys (Version: 6.1.12.39181)
00:00:00.209278            C:\Windows\system32\DRIVERS\VBoxDrv.sys (Version: 6.1.12.39181)
00:00:00.210653            C:\Windows\system32\DRIVERS\VBoxNetAdp6.sys (Version: 6.1.12.39181)
00:00:00.223894          Loading settings file "C:\Users\bapti\.VirtualBox\VirtualBox.xml" with version "1.12-windows"
00:00:00.229418          usbLibGetDevices: Starting USB device enumeration
00:00:00.229778          Getting USB descriptor (id 0) failed (dwErr=31) on hub USB#ROOT_HUB30#5&f6577f2&0&0#{f18a0e88-c30c-11d0-8815-00a0c906bed8} port 1
00:00:00.229867          Getting USB descriptor (id 0) failed (dwErr=31) on hub USB#ROOT_HUB30#5&f6577f2&0&0#{f18a0e88-c30c-11d0-8815-00a0c906bed8} port 3
00:00:00.229952          Getting USB descriptor (id 0) failed (dwErr=31) on hub USB#ROOT_HUB30#5&f6577f2&0&0#{f18a0e88-c30c-11d0-8815-00a0c906bed8} port 4
00:00:00.234125          usbLibGetDevices: Found 3 USB devices, 0 captured
00:00:00.234209          USB: Unknown USB device detected (idVendor: 0x0c45, idProduct: 0x6725)
00:00:00.234271          USB: Unknown USB device detected (idVendor: 0x0cf3, idProduct: 0xe007)
00:00:00.234288          USB: Unknown USB device detected (idVendor: 0x27c6, idProduct: 0x639c)
00:00:00.373704          HostDnsMonitor: initializing
00:00:00.386780          HostDnsMonitor: updating information
00:00:00.386818          HostDnsMonitor: old information
00:00:00.386819            no server entries
00:00:00.386820            no domain set
00:00:00.386820            no search string entries
00:00:00.386821          HostDnsMonitor: new information
00:00:00.386822            server 1: 192.168.2.246
00:00:00.386822            server 2: 192.168.2.249
00:00:00.386823            domain: eff-etudiant.fr
00:00:00.386824            no search string entries
00:00:00.468610          VD: VDInit finished with VINF_SUCCESS
00:00:00.481269          Loading settings file "C:\Users\bapti\OneDrive\Bureau\new pc\VirtualBox VMs\Windows 2012 (64-bit) - Backup\Windows 2012 (64-bit) - Backup.vbox" with version "1.15-windows"
00:00:00.492444          Loading settings file "C:\Users\bapti\OneDrive\Bureau\new pc\VirtualBox VMs\Windows 2012 (64-bit) - VM2\Windows 2012 (64-bit) - VM2.vbox" with version "1.15-windows"
00:00:00.502674          Loading settings file "C:\Users\bapti\OneDrive\Bureau\Virtualbox\VMnew\VMnew.vbox" with version "1.15-windows"
00:00:00.512619          Loading settings file "C:\Users\bapti\OneDrive\Bureau\Virtualbox\VMclient\VMclient.vbox" with version "1.15-windows"
00:00:00.522642          Loading settings file "C:\Users\bapti\OneDrive\Bureau\Virtualbox\Ubuntu\Ubuntu.vbox" with version "1.16-windows"
00:00:00.532308          Loading settings file "C:\Users\bapti\OneDrive\Bureau\new pc\VirtualBox VMs\Debian\Debian.vbox" with version "1.16-windows"
00:00:00.534265          VirtualBox: object created
00:00:04.441213          Saving settings file "C:\Users\bapti\.VirtualBox\VirtualBox.xml" with version "1.12-windows"
00:00:04.463926          Saving settings file "C:\Users\bapti\.VirtualBox\VirtualBox.xml" with version "1.12-windows"
00:00:05.863303          Launched VM: 70818016 pid: 31296 (0x7a40) frontend: GUI/Qt name: Debian
00:00:12.170994          ERROR [COM]: aRC=VBOX_E_OBJECT_NOT_FOUND (0x80bb0001) aIID={70401eef-c8e9-466b-9660-45cb3e9979e4} aComponent={ExtPackManagerWrap} aText={No extension pack by the name 'Oracle VM VirtualBox Extension Pack' was found}, preserve=false aResultDetail=0
00:00:12.469238          ERROR [COM]: aRC=VBOX_E_IPRT_ERROR (0x80bb0005) aIID={85632c68-b5bb-4316-a900-5eb28d3413df} aComponent={SessionMachine} aText={Saved screenshot data is not available (VERR_NOT_SUPPORTED)}, preserve=false aResultDetail=-37
00:00:13.495081          NetworkServiceRunning: started 'VBoxNetDHCP.exe', pid 00003ed0
00:28:10.691556 dns-monitor HostDnsMonitor: updating information
00:28:10.691663 dns-monitor HostDnsMonitor: unchanged
00:58:30.966094 dns-monitor HostDnsMonitor: updating information
00:58:30.966219 dns-monitor HostDnsMonitor: unchanged
01:05:48.221095 USBPROXY usbLibGetDevices: Starting USB device enumeration
01:05:48.222377 USBPROXY Getting USB descriptor (id 0) failed (dwErr=31) on hub USB#ROOT_HUB30#5&f6577f2&0&0#{f18a0e88-c30c-11d0-8815-00a0c906bed8} port 1
01:05:48.222738 USBPROXY Getting USB descriptor (id 0) failed (dwErr=31) on hub USB#ROOT_HUB30#5&f6577f2&0&0#{f18a0e88-c30c-11d0-8815-00a0c906bed8} port 3
01:05:48.222879 USBPROXY Getting USB descriptor (id 0) failed (dwErr=31) on hub USB#ROOT_HUB30#5&f6577f2&0&0#{f18a0e88-c30c-11d0-8815-00a0c906bed8} port 4
01:05:48.223259 USBPROXY usbLibGetDevices: Found 3 USB devices, 0 captured
01:28:51.036033 dns-monitor HostDnsMonitor: updating information
01:28:51.036152 dns-monitor HostDnsMonitor: unchanged
01:33:53.439679 dns-monitor HostDnsMonitor: updating information
01:33:53.439734 dns-monitor HostDnsMonitor: unchanged
01:48:49.101357 USBPROXY usbLibGetDevices: Starting USB device enumeration
01:48:49.133900 USBPROXY Getting USB descriptor (id 0) failed (dwErr=31) on hub USB#ROOT_HUB30#5&f6577f2&0&0#{f18a0e88-c30c-11d0-8815-00a0c906bed8} port 3
01:48:49.188019 USBPROXY usbLibGetDevices: Found 3 USB devices, 0 captured
01:48:49.849941 USBPROXY usbLibGetDevices: Starting USB device enumeration
01:48:49.854432 USBPROXY Getting USB descriptor (id 0) failed (dwErr=31) on hub USB#ROOT_HUB30#5&f6577f2&0&0#{f18a0e88-c30c-11d0-8815-00a0c906bed8} port 3
01:48:49.862544 USBPROXY usbLibGetDevices: Found 3 USB devices, 0 captured
01:49:43.225687 USBPROXY usbLibGetDevices: Starting USB device enumeration
01:49:43.226235 USBPROXY Getting USB descriptor (id 0) failed (dwErr=31) on hub USB#ROOT_HUB30#5&f6577f2&0&0#{f18a0e88-c30c-11d0-8815-00a0c906bed8} port 1
01:49:43.226368 USBPROXY Getting USB descriptor (id 0) failed (dwErr=31) on hub USB#ROOT_HUB30#5&f6577f2&0&0#{f18a0e88-c30c-11d0-8815-00a0c906bed8} port 3
01:49:43.226478 USBPROXY Getting USB descriptor (id 0) failed (dwErr=31) on hub USB#ROOT_HUB30#5&f6577f2&0&0#{f18a0e88-c30c-11d0-8815-00a0c906bed8} port 4
01:49:43.226716 USBPROXY usbLibGetDevices: Found 3 USB devices, 0 captured
01:49:43.226831 USBPROXY USB: Unknown USB device detected (idVendor: 0x27c6, idProduct: 0x639c)
01:49:56.834137 USBPROXY usbLibGetDevices: Starting USB device enumeration
01:49:56.838436 USBPROXY Getting USB descriptor (id 0) failed (dwErr=31) on hub USB#ROOT_HUB30#5&f6577f2&0&0#{f18a0e88-c30c-11d0-8815-00a0c906bed8} port 3
01:49:56.838593 USBPROXY Getting USB descriptor (id 0) failed (dwErr=31) on hub USB#ROOT_HUB30#5&f6577f2&0&0#{f18a0e88-c30c-11d0-8815-00a0c906bed8} port 4
01:49:56.838836 USBPROXY usbLibGetDevices: Found 3 USB devices, 0 captured
01:51:03.897226 USBPROXY usbLibGetDevices: Starting USB device enumeration
01:51:03.897498 USBPROXY Getting USB descriptor (id 0) failed (dwErr=31) on hub USB#ROOT_HUB30#5&f6577f2&0&0#{f18a0e88-c30c-11d0-8815-00a0c906bed8} port 1
01:51:03.897577 USBPROXY Getting USB descriptor (id 0) failed (dwErr=31) on hub USB#ROOT_HUB30#5&f6577f2&0&0#{f18a0e88-c30c-11d0-8815-00a0c906bed8} port 3
01:51:03.897712 USBPROXY Getting USB descriptor (id 0) failed (dwErr=31) on hub USB#ROOT_HUB30#5&f6577f2&0&0#{f18a0e88-c30c-11d0-8815-00a0c906bed8} port 4
01:51:03.897857 USBPROXY usbLibGetDevices: Found 3 USB devices, 0 captured
01:57:22.386286          Saving settings file "C:\Users\bapti\OneDrive\Bureau\new pc\VirtualBox VMs\Debian\Debian.vbox" with version "1.16-windows"
01:57:23.059174          Saving settings file "C:\Users\bapti\OneDrive\Bureau\new pc\VirtualBox VMs\Debian\Debian.vbox" with version "1.16-windows"
01:57:29.545729          Launched VM: 70847664 pid: 30036 (0x7554) frontend: GUI/Qt name: Debian
01:57:34.534372          ERROR [COM]: aRC=VBOX_E_OBJECT_NOT_FOUND (0x80bb0001) aIID={70401eef-c8e9-466b-9660-45cb3e9979e4} aComponent={ExtPackManagerWrap} aText={No extension pack by the name 'Oracle VM VirtualBox Extension Pack' was found}, preserve=false aResultDetail=0
01:57:34.815133          ERROR [COM]: aRC=VBOX_E_IPRT_ERROR (0x80bb0005) aIID={85632c68-b5bb-4316-a900-5eb28d3413df} aComponent={SessionMachine} aText={Saved screenshot data is not available (VERR_NOT_SUPPORTED)}, preserve=false aResultDetail=-37
01:57:35.600494          ERROR [COM]: aRC=VBOX_E_OBJECT_IN_USE (0x80bb000c) aIID={cadef0a2-a1a9-4ac2-8e80-c049af69dac8} aComponent={DHCPServerWrap} aText={Cannot start DHCP server because it is already running (pid 00003ed0)}, preserve=false aResultDetail=-51
02:04:04.713565 dns-monitor HostDnsMonitor: updating information
02:04:04.713613 dns-monitor HostDnsMonitor: unchanged
02:11:58.191878 dns-monitor HostDnsMonitor: updating information
02:11:58.191933 dns-monitor HostDnsMonitor: unchanged
02:42:10.381661 dns-monitor HostDnsMonitor: updating information
02:42:10.381781 dns-monitor HostDnsMonitor: unchanged
02:48:07.401945 dns-monitor HostDnsMonitor: updating information
02:48:07.402011 dns-monitor HostDnsMonitor: unchanged
02:50:31.835243 USBPROXY usbLibGetDevices: Starting USB device enumeration
02:50:31.835616 USBPROXY Getting USB descriptor (id 0) failed (dwErr=31) on hub USB#ROOT_HUB30#5&f6577f2&0&0#{f18a0e88-c30c-11d0-8815-00a0c906bed8} port 1
02:50:31.835735 USBPROXY Getting USB descriptor (id 0) failed (dwErr=31) on hub USB#ROOT_HUB30#5&f6577f2&0&0#{f18a0e88-c30c-11d0-8815-00a0c906bed8} port 3
02:50:31.843178 USBPROXY usbLibGetDevices: Found 3 USB devices, 0 captured
02:51:19.536525 USBPROXY usbLibGetDevices: Starting USB device enumeration
02:51:19.536950 USBPROXY Getting USB descriptor (id 0) failed (dwErr=31) on hub USB#ROOT_HUB30#5&f6577f2&0&0#{f18a0e88-c30c-11d0-8815-00a0c906bed8} port 1
02:51:19.537088 USBPROXY Getting USB descriptor (id 0) failed (dwErr=31) on hub USB#ROOT_HUB30#5&f6577f2&0&0#{f18a0e88-c30c-11d0-8815-00a0c906bed8} port 3
02:51:19.537213 USBPROXY Getting USB descriptor (id 0) failed (dwErr=31) on hub USB#ROOT_HUB30#5&f6577f2&0&0#{f18a0e88-c30c-11d0-8815-00a0c906bed8} port 4
02:51:19.537444 USBPROXY usbLibGetDevices: Found 3 USB devices, 0 captured
02:51:19.537537 USBPROXY USB: Unknown USB device detected (idVendor: 0x27c6, idProduct: 0x639c)
03:18:23.555131 dns-monitor HostDnsMonitor: updating information
03:18:23.555258 dns-monitor HostDnsMonitor: unchanged
03:24:39.606679 USBPROXY usbLibGetDevices: Starting USB device enumeration
03:24:39.607011 USBPROXY Getting USB descriptor (id 0) failed (dwErr=31) on hub USB#ROOT_HUB30#5&f6577f2&0&0#{f18a0e88-c30c-11d0-8815-00a0c906bed8} port 1
03:24:39.607099 USBPROXY Getting USB descriptor (id 0) failed (dwErr=31) on hub USB#ROOT_HUB30#5&f6577f2&0&0#{f18a0e88-c30c-11d0-8815-00a0c906bed8} port 3
03:24:39.607163 USBPROXY Getting USB descriptor (id 0) failed (dwErr=31) on hub USB#ROOT_HUB30#5&f6577f2&0&0#{f18a0e88-c30c-11d0-8815-00a0c906bed8} port 4
03:24:39.607470 USBPROXY usbLibGetDevices: Found 3 USB devices, 0 captured
03:48:43.424866 dns-monitor HostDnsMonitor: updating information
03:48:43.424965 dns-monitor HostDnsMonitor: unchanged
03:59:43.407673 USBPROXY usbLibGetDevices: Starting USB device enumeration
03:59:43.408092 USBPROXY Getting USB descriptor (id 0) failed (dwErr=31) on hub USB#ROOT_HUB30#5&f6577f2&0&0#{f18a0e88-c30c-11d0-8815-00a0c906bed8} port 1
03:59:43.408561 USBPROXY Getting USB descriptor (id 0) failed (dwErr=31) on hub USB#ROOT_HUB30#5&f6577f2&0&0#{f18a0e88-c30c-11d0-8815-00a0c906bed8} port 3
03:59:43.416721 USBPROXY usbLibGetDevices: Found 3 USB devices, 0 captured
04:00:28.005345 USBPROXY usbLibGetDevices: Starting USB device enumeration
04:00:28.005722 USBPROXY Getting USB descriptor (id 0) failed (dwErr=31) on hub USB#ROOT_HUB30#5&f6577f2&0&0#{f18a0e88-c30c-11d0-8815-00a0c906bed8} port 1
04:00:28.005856 USBPROXY Getting USB descriptor (id 0) failed (dwErr=31) on hub USB#ROOT_HUB30#5&f6577f2&0&0#{f18a0e88-c30c-11d0-8815-00a0c906bed8} port 3
04:00:28.005976 USBPROXY Getting USB descriptor (id 0) failed (dwErr=31) on hub USB#ROOT_HUB30#5&f6577f2&0&0#{f18a0e88-c30c-11d0-8815-00a0c906bed8} port 4
04:00:28.006200 USBPROXY usbLibGetDevices: Found 3 USB devices, 0 captured
04:00:28.006262 USBPROXY USB: Unknown USB device detected (idVendor: 0x27c6, idProduct: 0x639c)
04:19:03.088759 dns-monitor HostDnsMonitor: updating information
04:19:03.088861 dns-monitor HostDnsMonitor: unchanged
04:33:40.728444 dns-monitor HostDnsMonitor: updating information
04:33:40.728484 dns-monitor HostDnsMonitor: unchanged
04:39:24.206092 USBPROXY usbLibGetDevices: Starting USB device enumeration
04:39:24.206481 USBPROXY Getting USB descriptor (id 0) failed (dwErr=31) on hub USB#ROOT_HUB30#5&f6577f2&0&0#{f18a0e88-c30c-11d0-8815-00a0c906bed8} port 1
04:39:24.206852 USBPROXY Getting USB descriptor (id 0) failed (dwErr=31) on hub USB#ROOT_HUB30#5&f6577f2&0&0#{f18a0e88-c30c-11d0-8815-00a0c906bed8} port 3
04:39:24.215087 USBPROXY usbLibGetDevices: Found 3 USB devices, 0 captured
04:40:08.747706 USBPROXY usbLibGetDevices: Starting USB device enumeration
04:40:08.748094 USBPROXY Getting USB descriptor (id 0) failed (dwErr=31) on hub USB#ROOT_HUB30#5&f6577f2&0&0#{f18a0e88-c30c-11d0-8815-00a0c906bed8} port 1
04:40:08.748147 USBPROXY Getting USB descriptor (id 0) failed (dwErr=31) on hub USB#ROOT_HUB30#5&f6577f2&0&0#{f18a0e88-c30c-11d0-8815-00a0c906bed8} port 3
04:40:08.748191 USBPROXY Getting USB descriptor (id 0) failed (dwErr=31) on hub USB#ROOT_HUB30#5&f6577f2&0&0#{f18a0e88-c30c-11d0-8815-00a0c906bed8} port 4
04:40:08.748311 USBPROXY usbLibGetDevices: Found 3 USB devices, 0 captured
04:40:08.748408 USBPROXY USB: Unknown USB device detected (idVendor: 0x27c6, idProduct: 0x639c)
04:41:05.084802 USBPROXY usbLibGetDevices: Starting USB device enumeration
04:41:05.085110 USBPROXY Getting USB descriptor (id 0) failed (dwErr=31) on hub USB#ROOT_HUB30#5&f6577f2&0&0#{f18a0e88-c30c-11d0-8815-00a0c906bed8} port 1
04:41:05.085212 USBPROXY Getting USB descriptor (id 0) failed (dwErr=31) on hub USB#ROOT_HUB30#5&f6577f2&0&0#{f18a0e88-c30c-11d0-8815-00a0c906bed8} port 3
04:41:05.091988 USBPROXY usbLibGetDevices: Found 3 USB devices, 0 captured
04:44:12.755103 USBPROXY usbLibGetDevices: Starting USB device enumeration
04:44:12.755566 USBPROXY Getting USB descriptor (id 0) failed (dwErr=31) on hub USB#ROOT_HUB30#5&f6577f2&0&0#{f18a0e88-c30c-11d0-8815-00a0c906bed8} port 1
04:44:12.755694 USBPROXY Getting USB descriptor (id 0) failed (dwErr=31) on hub USB#ROOT_HUB30#5&f6577f2&0&0#{f18a0e88-c30c-11d0-8815-00a0c906bed8} port 3
04:44:12.755807 USBPROXY Getting USB descriptor (id 0) failed (dwErr=31) on hub USB#ROOT_HUB30#5&f6577f2&0&0#{f18a0e88-c30c-11d0-8815-00a0c906bed8} port 4
04:44:12.756053 USBPROXY usbLibGetDevices: Found 3 USB devices, 0 captured
04:44:12.756134 USBPROXY USB: Unknown USB device detected (idVendor: 0x27c6, idProduct: 0x639c)
23:19:48.008311 USBPROXY usbLibGetDevices: Starting USB device enumeration
23:19:48.028435 USBPROXY Getting USB descriptor (id 0) failed (dwErr=31) on hub USB#ROOT_HUB30#5&f6577f2&0&0#{f18a0e88-c30c-11d0-8815-00a0c906bed8} port 3
23:19:48.028740 USBPROXY Getting USB descriptor (id 0) failed (dwErr=31) on hub USB#ROOT_HUB30#5&f6577f2&0&0#{f18a0e88-c30c-11d0-8815-00a0c906bed8} port 4
23:19:48.029182 USBPROXY usbLibGetDevices: Found 3 USB devices, 0 captured
